{"token":"eyJ0eXAiOiJKV1QiLCJhbGciOiJIUzI1NiJ9.eyJ1aWQiOjk3NjcsImV4cGlyZWQiOjE2MDIyOTc4NjZ9.2-Em4ZKooqeR601ZKxJWNYnypcUuvNswBAYfVYaQGwc","data":{"method":"PUT","data":[{"quiz_id":1,"choiceSeq":4},{"quiz_id":2,"choiceSeq":3},{"quiz_id":3,"choiceSeq":4}]}}
{"token":"eyJ0eXAiOiJKV1QiLCJhbGciOiJIUzI1NiJ9.eyJ1aWQiOjQ2NDY1LCJleHBpcmVkIjoxNjAyMjk4MDI2fQ.h9ga3wL9ubrUgoYIX5HbpBip2YhRYQpTEYj7JjN3zS8","data":{"method":"PUT","data":[{"quiz_id":1,"choiceSeq":4},{"quiz_id":2,"choiceSeq":2},{"quiz_id":3,"choiceSeq":4}]}}
{"token":"eyJ0eXAiOiJKV1QiLCJhbGciOiJIUzI1NiJ9.eyJ1aWQiOjE1NzUsImV4cGlyZWQiOjE2MDIyOTc5MTB9.OtVAxOQOXkQ4bNy0vHWLwxeoLGnXySNC7ZRsmxbYeUI","data":{"method":"PUT","data":[{"quiz_id":1,"choiceSeq":4},{"quiz_id":2,"choiceSeq":3},{"quiz_id":3,"choiceSeq":4}]}}
{"token":"eyJ0eXAiOiJKV1QiLCJhbGciOiJIUzI1NiJ9.eyJ1aWQiOjI1MTMsImV4cGlyZWQiOjE2MDIyOTg0MTN9.uFQxZBGoIh5GAJbKV9dsi7Iskhal44jcqufndbokAYM","data":{"method":"PUT","data":[{"quiz_id":1,"choiceSeq":4},{"quiz_id":2,"choiceSeq":3},{"quiz_id":3,"choiceSeq":4}]}}
{"token":"eyJ0eXAiOiJKV1QiLCJhbGciOiJIUzI1NiJ9.eyJ1aWQiOjIwNjczLCJleHBpcmVkIjoxNjAyMjk4MjY3fQ.A7kH9Y8nGEDGVRQE9gMgKhK097dJhjvAE-h0H8wyWi8","data":{"method":"PUT","data":[{"quiz_id":1,"choiceSeq":4},{"quiz_id":2,"choiceSeq":3},{"quiz_id":3,"choiceSeq":4}]}}
{"token":"eyJ0eXAiOiJKV1QiLCJhbGciOiJIUzI1NiJ9.eyJ1aWQiOjExMDA3LCJleHBpcmVkIjoxNjAyMjk4NzM1fQ.W40Eq-h7zfoftyDrp7y8nP8UEiDhdYGJuOnG7TAWNQI","data":{"method":"PUT","data":[{"quiz_id":1,"choiceSeq":4},{"quiz_id":2,"choiceSeq":2},{"quiz_id":3,"choiceSeq":4}]}}
{"token":"eyJ0eXAiOiJKV1QiLCJhbGciOiJIUzI1NiJ9.eyJ1aWQiOjQxNDc0LCJleHBpcmVkIjoxNjAyMjk4NjgyfQ.3a3yOx_O6dm5C9zsUQzEaMfoZLXdnaBodzpVpvMT8dA","data":{"method":"PUT","data":[{"quiz_id":1,"choiceSeq":4},{"quiz_id":2,"choiceSeq":3},{"quiz_id":3,"choiceSeq":4}]}}
{"token":"eyJ0eXAiOiJKV1QiLCJhbGciOiJIUzI1NiJ9.eyJ1aWQiOjEwNTUsImV4cGlyZWQiOjE2MDIyOTgzNjN9.AWW8KdajvDrXWRBERdNy2oL5DV2HNcbey-73oyKT1bw","data":{"method":"PUT","data":[{"quiz_id":1,"choiceSeq":4},{"quiz_id":2,"choiceSeq":3},{"quiz_id":3,"choiceSeq":4}]}}
{"token":"eyJ0eXAiOiJKV1QiLCJhbGciOiJIUzI1NiJ9.eyJ1aWQiOjQ2MjI2LCJleHBpcmVkIjoxNjAyMjk3MTgyfQ.my7eolR4u_gPccrlMJ9xiYnD-1ahRgLUjaHEgVtG6iQ","data":{"method":"PUT","data":[{"quiz_id":1,"choiceSeq":1},{"quiz_id":2,"choiceSeq":3},{"quiz_id":3,"choiceSeq":4}]}}
{"token":"eyJ0eXAiOiJKV1QiLCJhbGciOiJIUzI1NiJ9.eyJ1aWQiOjQyMzI1LCJleHBpcmVkIjoxNjAyMjk5MTk4fQ.RSe2gUMWYf_WQuJwAddpo7ei_B4y1iWGpxiiDcZs8qA","data":{"method":"PUT","data":[{"quiz_id":1,"choiceSeq":4},{"quiz_id":2,"choiceSeq":3},{"quiz_id":3,"choiceSeq":4}]}}
{"token":"eyJ0eXAiOiJKV1QiLCJhbGciOiJIUzI1NiJ9.eyJ1aWQiOjQ2Nzc0LCJleHBpcmVkIjoxNjAyMjk5Nzg5fQ.w0RZqk8fvf0KzXyoIHnwIRib0VHgH_c8lGglkzRQnC0","data":{"method":"PUT","data":[{"quiz_id":1,"choiceSeq":4},{"quiz_id":2,"choiceSeq":3},{"quiz_id":3,"choiceSeq":4}]}}
{"token":"eyJ0eXAiOiJKV1QiLCJhbGciOiJIUzI1NiJ9.eyJ1aWQiOjEyMzcyLCJleHBpcmVkIjoxNjAyMjk5NjYwfQ.mNj0GOXeXR9U5pm-5tZxnKWiHauE6-EVWAp6uDOIzqA","data":{"method":"PUT","data":[{"quiz_id":1,"choiceSeq":4},{"quiz_id":2,"choiceSeq":3},{"quiz_id":3,"choiceSeq":4}]}}
{"token":"eyJ0eXAiOiJKV1QiLCJhbGciOiJIUzI1NiJ9.eyJ1aWQiOjUwNzA4LCJleHBpcmVkIjoxNjAyMjk5NzYyfQ.5_rJND2qybLnZcaSJhjax5y4j9spxCNoz4RA7b09Hak","data":{"method":"PUT","data":[{"quiz_id":1,"choiceSeq":4},{"quiz_id":2,"choiceSeq":2},{"quiz_id":3,"choiceSeq":4}]}}
{"token":"eyJ0eXAiOiJKV1QiLCJhbGciOiJIUzI1NiJ9.eyJ1aWQiOjQxNDQ4LCJleHBpcmVkIjoxNjAyMjk5OTI1fQ.-iejWAO1a_x7y40FesggChVcC-k9yindMX88t52XH7w","data":{"method":"PUT","data":[{"quiz_id":1,"choiceSeq":4},{"quiz_id":2,"choiceSeq":3},{"quiz_id":3,"choiceSeq":4}]}}
{"token":"eyJ0eXAiOiJKV1QiLCJhbGciOiJIUzI1NiJ9.eyJ1aWQiOjQyNDAxLCJleHBpcmVkIjoxNjAyMzAwMTgwfQ.mNqkvLakaAnMIcjXOBOiADIRcOqoBLJv_IHEBRKdj1k","data":{"method":"PUT","data":[{"quiz_id":1,"choiceSeq":4},{"quiz_id":2,"choiceSeq":2},{"quiz_id":3,"choiceSeq":4}]}}
{"token":"eyJ0eXAiOiJKV1QiLCJhbGciOiJIUzI1NiJ9.eyJ1aWQiOjQyNzc3LCJleHBpcmVkIjoxNjAyMzAwNTIwfQ.9jyuwq7WlKNkafEyhW0L_w-ExfYUYBVu21xdFnTSPOQ","data":{"method":"PUT","data":[{"quiz_id":1,"choiceSeq":4},{"quiz_id":2,"choiceSeq":3},{"quiz_id":3,"choiceSeq":3}]}}
{"token":"eyJ0eXAiOiJKV1QiLCJhbGciOiJIUzI1NiJ9.eyJ1aWQiOjQ3NTA2LCJleHBpcmVkIjoxNjAyMzAwNDY4fQ.IE_4c3693KFzFGq5s39ms3KnOFKovfre2yc_QzFj9kU","data":{"method":"PUT","data":[{"quiz_id":1,"choiceSeq":4},{"quiz_id":2,"choiceSeq":3},{"quiz_id":3,"choiceSeq":4}]}}
{"token":"eyJ0eXAiOiJKV1QiLCJhbGciOiJIUzI1NiJ9.eyJ1aWQiOjE5MjEsImV4cGlyZWQiOjE2MDIzMDExNTh9.efnDZS34PE7AoOpLAlwFfNg16ndwCMT1lieBP50Tb9k","data":{"method":"PUT","data":[{"quiz_id":1,"choiceSeq":4},{"quiz_id":2,"choiceSeq":3},{"quiz_id":3,"choiceSeq":4}]}}
{"token":"eyJ0eXAiOiJKV1QiLCJhbGciOiJIUzI1NiJ9.eyJ1aWQiOjIwNjUwLCJleHBpcmVkIjoxNjAyMzAxMTA4fQ.JkSr3by0cK4qolona4LRo6XnUPbhjRRborIIc2psElQ","data":{"method":"PUT","data":[{"quiz_id":1,"choiceSeq":4},{"quiz_id":2,"choiceSeq":3},{"quiz_id":3,"choiceSeq":4}]}}
{"token":"eyJ0eXAiOiJKV1QiLCJhbGciOiJIUzI1NiJ9.eyJ1aWQiOjExMDUwLCJleHBpcmVkIjoxNjAyMzAwODk0fQ.KFmSDGN9WeHr4Bgie2NlGe3OJvMLTLoxDo6ZKRztyok","data":{"method":"PUT","data":[{"quiz_id":1,"choiceSeq":4},{"quiz_id":2,"choiceSeq":3},{"quiz_id":3,"choiceSeq":4}]}}
{"token":"eyJ0eXAiOiJKV1QiLCJhbGciOiJIUzI1NiJ9.eyJ1aWQiOjQ3MTY0LCJleHBpcmVkIjoxNjAyMzAxNDkyfQ.e75XRBlQhbshDtn9ua34EzUkn_s3_tVH4Iuq2cgxrgA","data":{"method":"PUT","data":[{"quiz_id":1,"choiceSeq":1},{"quiz_id":2,"choiceSeq":1},{"quiz_id":3,"choiceSeq":4}]}}
{"token":"eyJ0eXAiOiJKV1QiLCJhbGciOiJIUzI1NiJ9.eyJ1aWQiOjU4MCwiZXhwaXJlZCI6MTYwMjMwMjA3MH0.MK4x-H2F3MFy22Kgp20ZQRZ_N8wDZHW-2SBzO4mieB4","data":{"method":"PUT","data":[{"quiz_id":1,"choiceSeq":4},{"quiz_id":2,"choiceSeq":3},{"quiz_id":3,"choiceSeq":4}]}}
{"token":"eyJ0eXAiOiJKV1QiLCJhbGciOiJIUzI1NiJ9.eyJ1aWQiOjQzMjAyLCJleHBpcmVkIjoxNjAyMzAyNTA1fQ.zWhUqDMWD4OaMERNK0h9sTNoy_Bclm9YRnvMLV7dhT0","data":{"method":"PUT","data":[{"quiz_id":1,"choiceSeq":4},{"quiz_id":2,"choiceSeq":3},{"quiz_id":3,"choiceSeq":4}]}}
{"token":"eyJ0eXAiOiJKV1QiLCJhbGciOiJIUzI1NiJ9.eyJ1aWQiOjIwNjAxLCJleHBpcmVkIjoxNjAyMzAzMjU5fQ.Z5xzGUVo7zaWh9Vvb8ChRBoFfvY2UVodnTBTrc77VJQ","data":{"method":"PUT","data":[{"quiz_id":1,"choiceSeq":4},{"quiz_id":2,"choiceSeq":3},{"quiz_id":3,"choiceSeq":4}]}}
{"token":"eyJ0eXAiOiJKV1QiLCJhbGciOiJIUzI1NiJ9.eyJ1aWQiOjIyNjksImV4cGlyZWQiOjE2MDIzMDM2NzF9.3F6-sTQHzkwjt_OTxoTpHMt86VS3zOxXv4S8DN3jbiE","data":{"method":"PUT","data":[{"quiz_id":1,"choiceSeq":4},{"quiz_id":2,"choiceSeq":3},{"quiz_id":3,"choiceSeq":4}]}}
{"token":"eyJ0eXAiOiJKV1QiLCJhbGciOiJIUzI1NiJ9.eyJ1aWQiOjE1NjQsImV4cGlyZWQiOjE2MDIzMDQwMDl9.3fG-3SP0oCZ-IJ-lNVfZYPI8VHb7Ff9HGbJOd5lbJX0","data":{"method":"PUT","data":[{"quiz_id":1,"choiceSeq":4},{"quiz_id":2,"choiceSeq":3},{"quiz_id":3,"choiceSeq":4}]}}
{"token":"eyJ0eXAiOiJKV1QiLCJhbGciOiJIUzI1NiJ9.eyJ1aWQiOjIyODksImV4cGlyZWQiOjE2MDIzMDM5ODd9.PdSXYDlhvkLGdjruqFilro2x6MCdBJJsz95lOizG0yE","data":{"method":"PUT","data":[{"quiz_id":1,"choiceSeq":4},{"quiz_id":2,"choiceSeq":3},{"quiz_id":3,"choiceSeq":4}]}}
{"token":"eyJ0eXAiOiJKV1QiLCJhbGciOiJIUzI1NiJ9.eyJ1aWQiOjQzMDgwLCJleHBpcmVkIjoxNjAyMzA0MDc2fQ.HtvnLCCu1f4btR7yZFCcgGYM0-JkcR4OZxANhAw7rxY","data":{"method":"PUT","data":[{"quiz_id":1,"choiceSeq":4},{"quiz_id":2,"choiceSeq":3},{"quiz_id":3,"choiceSeq":4}]}}
{"token":"eyJ0eXAiOiJKV1QiLCJhbGciOiJIUzI1NiJ9.eyJ1aWQiOjQyMDA3LCJleHBpcmVkIjoxNjAyMzA0MDI1fQ.FreUcgQKxWz5QMXa0BcuPchh1SvcE4bva0Q1Exyh-g0","data":{"method":"PUT","data":[{"quiz_id":1,"choiceSeq":4},{"quiz_id":2,"choiceSeq":3},{"quiz_id":3,"choiceSeq":4}]}}
{"token":"eyJ0eXAiOiJKV1QiLCJhbGciOiJIUzI1NiJ9.eyJ1aWQiOjIzNTgsImV4cGlyZWQiOjE2MDIzMDQ1MzZ9.yvRQR-dhSTOCrxjhBeIxZnZ7nAw47Q-D71OHYDRxAOg","data":{"method":"PUT","data":[{"quiz_id":1,"choiceSeq":4},{"quiz_id":2,"choiceSeq":3},{"quiz_id":3,"choiceSeq":4}]}}
{"token":"eyJ0eXAiOiJKV1QiLCJhbGciOiJIUzI1NiJ9.eyJ1aWQiOjQyOTcyLCJleHBpcmVkIjoxNjAyMzA0NjIxfQ.K1F-i_U43mwzMn6cDZfDc4tpkEddmPE8Ck5tBY31ErA","data":{"method":"PUT","data":[{"quiz_id":1,"choiceSeq":4},{"quiz_id":2,"choiceSeq":3},{"quiz_id":3,"choiceSeq":4}]}}
{"token":"eyJ0eXAiOiJKV1QiLCJhbGciOiJIUzI1NiJ9.eyJ1aWQiOjc0MCwiZXhwaXJlZCI6MTYwMjMwNDgwNX0.jmYhlSaNTRebfz5RjW9VognrqrGUvSSDLjjGhwk2r-0","data":{"method":"PUT","data":[{"quiz_id":1,"choiceSeq":4},{"quiz_id":2,"choiceSeq":3},{"quiz_id":3,"choiceSeq":4}]}}
{"token":"eyJ0eXAiOiJKV1QiLCJhbGciOiJIUzI1NiJ9.eyJ1aWQiOjQ3MjAwLCJleHBpcmVkIjoxNjAyMzA0OTA2fQ.c6lMdmNReSv1r7BZ6lFYchL0_uaPHGWnUDXcnsYbOdA","data":{"method":"PUT","data":[{"quiz_id":1,"choiceSeq":4},{"quiz_id":2,"choiceSeq":3},{"quiz_id":3,"choiceSeq":4}]}}
{"token":"eyJ0eXAiOiJKV1QiLCJhbGciOiJIUzI1NiJ9.eyJ1aWQiOjQ2NTI4LCJleHBpcmVkIjoxNjAyMzA0NjE1fQ.QQK6PiQIxtU6eNONUZnVCrWbPm6QMYfV4sAaHA7JYlg","data":{"method":"PUT","data":[{"quiz_id":1,"choiceSeq":4},{"quiz_id":2,"choiceSeq":3},{"quiz_id":3,"choiceSeq":4}]}}
{"token":"eyJ0eXAiOiJKV1QiLCJhbGciOiJIUzI1NiJ9.eyJ1aWQiOjEyMzgsImV4cGlyZWQiOjE2MDIzMDQ3MzR9.na6MifeOEbPDqGqqMymfQgeoOWIiZDVVO5A4rhHhubU","data":{"method":"PUT","data":[{"quiz_id":1,"choiceSeq":4},{"quiz_id":2,"choiceSeq":2},{"quiz_id":3,"choiceSeq":4}]}}
{"token":"eyJ0eXAiOiJKV1QiLCJhbGciOiJIUzI1NiJ9.eyJ1aWQiOjUwNzg0LCJleHBpcmVkIjoxNjAyMzA1MDQ2fQ.Sbr-1Ppu0CqmdpO5e7tH-eFL9R-935a7TQFhj5516v0","data":{"method":"PUT","data":[{"quiz_id":1,"choiceSeq":4},{"quiz_id":2,"choiceSeq":3},{"quiz_id":3,"choiceSeq":4}]}}
{"token":"eyJ0eXAiOiJKV1QiLCJhbGciOiJIUzI1NiJ9.eyJ1aWQiOjEzOTMsImV4cGlyZWQiOjE2MDIzMDQ5ODR9.AeYcub10lsmer8xZPVgGoAi3qxPsT484K1c8Gl6ws-I","data":{"method":"PUT","data":[{"quiz_id":1,"choiceSeq":4},{"quiz_id":2,"choiceSeq":3},{"quiz_id":3,"choiceSeq":4}]}}
{"token":"eyJ0eXAiOiJKV1QiLCJhbGciOiJIUzI1NiJ9.eyJ1aWQiOjQxMzE0LCJleHBpcmVkIjoxNjAyMzA1MjAxfQ.t7UvlskQGuaguARK6HgJS-acN2IhfOeNhUVbDCtKJ2w","data":{"method":"PUT","data":[{"quiz_id":1,"choiceSeq":4},{"quiz_id":2,"choiceSeq":3},{"quiz_id":3,"choiceSeq":4}]}}
{"token":"eyJ0eXAiOiJKV1QiLCJhbGciOiJIUzI1NiJ9.eyJ1aWQiOjEyMzgxLCJleHBpcmVkIjoxNjAyMzA1MjU3fQ.bJwOh9DWVnDApzNMOazEubs7oM6skiIqMdQHVH1uyD8","data":{"method":"PUT","data":[{"quiz_id":1,"choiceSeq":4},{"quiz_id":2,"choiceSeq":3},{"quiz_id":3,"choiceSeq":4}]}}
{"token":"eyJ0eXAiOiJKV1QiLCJhbGciOiJIUzI1NiJ9.eyJ1aWQiOjUwNDk1LCJleHBpcmVkIjoxNjAyMzA1MzE2fQ.Xig0wAjpH23qDxFKBkNjHU9yy4Ayopzba2XzcjkrESw","data":{"method":"PUT","data":[{"quiz_id":1,"choiceSeq":4},{"quiz_id":2,"choiceSeq":3},{"quiz_id":3,"choiceSeq":4}]}}
{"token":"eyJ0eXAiOiJKV1QiLCJhbGciOiJIUzI1NiJ9.eyJ1aWQiOjQwMjkyLCJleHBpcmVkIjoxNjAyMzA1MzY5fQ._6fMMMaqUmkiLuhPAL8K-T1Plemab-VvkN3-qwStLeg","data":{"method":"PUT","data":[{"quiz_id":1,"choiceSeq":4},{"quiz_id":2,"choiceSeq":3},{"quiz_id":3,"choiceSeq":4}]}}
{"token":"eyJ0eXAiOiJKV1QiLCJhbGciOiJIUzI1NiJ9.eyJ1aWQiOjQyNjAwLCJleHBpcmVkIjoxNjAyMzA1NTM3fQ.UMD3EWGHrmQPvQKbsUSxbPCyzOMSOtfx1Yu4uFknz-w","data":{"method":"PUT","data":[{"quiz_id":1,"choiceSeq":4},{"quiz_id":2,"choiceSeq":3},{"quiz_id":3,"choiceSeq":4}]}}
{"token":"eyJ0eXAiOiJKV1QiLCJhbGciOiJIUzI1NiJ9.eyJ1aWQiOjQ0MjI1LCJleHBpcmVkIjoxNjAyMzA1NTYyfQ.UDV_l5e9IEmfW0i2E6pHK2V57nLhsMoCSYBOrO7-W0Q","data":{"method":"PUT","data":[{"quiz_id":1,"choiceSeq":4},{"quiz_id":2,"choiceSeq":3},{"quiz_id":3,"choiceSeq":4}]}}
{"token":"eyJ0eXAiOiJKV1QiLCJhbGciOiJIUzI1NiJ9.eyJ1aWQiOjQzMDgxLCJleHBpcmVkIjoxNjAyMzA1MTU4fQ.bNGxmdGCP0FK0YR6tJ4vdOlLfyZRVwCFINqomagAqFE","data":{"method":"PUT","data":[{"quiz_id":1,"choiceSeq":4},{"quiz_id":2,"choiceSeq":3},{"quiz_id":3,"choiceSeq":4}]}}
{"token":"eyJ0eXAiOiJKV1QiLCJhbGciOiJIUzI1NiJ9.eyJ1aWQiOjQzOTE1LCJleHBpcmVkIjoxNjAyMzA1ODc4fQ.nHsyfFa-QMzF-sPVa_qtrHfFhkc47llecdlwf_FJROc","data":{"method":"PUT","data":[{"quiz_id":1,"choiceSeq":4},{"quiz_id":2,"choiceSeq":3},{"quiz_id":3,"choiceSeq":4}]}}
{"token":"eyJ0eXAiOiJKV1QiLCJhbGciOiJIUzI1NiJ9.eyJ1aWQiOjIwNjk4LCJleHBpcmVkIjoxNjAyMzA1OTM3fQ.eXnl7cksYXomHGGMh9g8vB0PPgiRPndlfVe7iVINkHQ","data":{"method":"PUT","data":[{"quiz_id":1,"choiceSeq":4},{"quiz_id":2,"choiceSeq":3},{"quiz_id":3,"choiceSeq":4}]}}
{"token":"eyJ0eXAiOiJKV1QiLCJhbGciOiJIUzI1NiJ9.eyJ1aWQiOjk4OTgsImV4cGlyZWQiOjE2MDIzMDYwOTJ9.CRQTHdkPzUrWEBwcBqa-GDE9imvLYhZDM553skhCQf8","data":{"method":"PUT","data":[{"quiz_id":1,"choiceSeq":4},{"quiz_id":2,"choiceSeq":3},{"quiz_id":3,"choiceSeq":1}]}}
{"token":"eyJ0eXAiOiJKV1QiLCJhbGciOiJIUzI1NiJ9.eyJ1aWQiOjQzNTY1LCJleHBpcmVkIjoxNjAyMzA2Mzg0fQ.O4uvxaYC8QDXjiS6NnDhcq4UwJeRl4fV5SJGfO88e_s","data":{"method":"PUT","data":[{"quiz_id":1,"choiceSeq":4},{"quiz_id":2,"choiceSeq":2},{"quiz_id":3,"choiceSeq":4}]}}
{"token":"eyJ0eXAiOiJKV1QiLCJhbGciOiJIUzI1NiJ9.eyJ1aWQiOjk1MDIsImV4cGlyZWQiOjE2MDIzMDYwMzV9.9NWgml4wcRDD5w-HYlYp9N4yzpcE1BNzCfcRRiR-q84","data":{"method":"PUT","data":[{"quiz_id":1,"choiceSeq":4},{"quiz_id":2,"choiceSeq":3},{"quiz_id":3,"choiceSeq":4}]}}
{"token":"eyJ0eXAiOiJKV1QiLCJhbGciOiJIUzI1NiJ9.eyJ1aWQiOjIwNjI0LCJleHBpcmVkIjoxNjAyMzA1ODE3fQ.oQ76Eg2W_aj2hdJs68cKRVz_-CatdGg2M_1sSPiraXw","data":{"method":"PUT","data":[{"quiz_id":1,"choiceSeq":4},{"quiz_id":2,"choiceSeq":3},{"quiz_id":3,"choiceSeq":4}]}}
{"token":"eyJ0eXAiOiJKV1QiLCJhbGciOiJIUzI1NiJ9.eyJ1aWQiOjQyOTIxLCJleHBpcmVkIjoxNjAyMzA2NjQ5fQ.IlO1_dtPjGOtZ36z6csh4NivfhPxMJlkdxC6FNnu7AU","data":{"method":"PUT","data":[{"quiz_id":1,"choiceSeq":4},{"quiz_id":2,"choiceSeq":3},{"quiz_id":3,"choiceSeq":4}]}}
{"token":"eyJ0eXAiOiJKV1QiLCJhbGciOiJIUzI1NiJ9.eyJ1aWQiOjQyMzk5LCJleHBpcmVkIjoxNjAyMzA2NzE4fQ.R0ubF8xy799BQKGT4qIyX7Rj6yYlj7gFs2ATMmAz26Q","data":{"method":"PUT","data":[{"quiz_id":1,"choiceSeq":4},{"quiz_id":2,"choiceSeq":3},{"quiz_id":3,"choiceSeq":4}]}}
{"token":"eyJ0eXAiOiJKV1QiLCJhbGciOiJIUzI1NiJ9.eyJ1aWQiOjQ2NTM1LCJleHBpcmVkIjoxNjAyMzA3MjQxfQ.5xFuorp5cO1U8KXvAAwZ3CXgfxD0g0NvmTz0J-fKB7I","data":{"method":"PUT","data":[{"quiz_id":1,"choiceSeq":4},{"quiz_id":2,"choiceSeq":3},{"quiz_id":3,"choiceSeq":4}]}}
{"token":"eyJ0eXAiOiJKV1QiLCJhbGciOiJIUzI1NiJ9.eyJ1aWQiOjQwNjk2LCJleHBpcmVkIjoxNjAyMzA3MDU1fQ.kLNkgDANJbdGM-Yd9zuT2UvYq6HxZprNWKEii9xDOwc","data":{"method":"PUT","data":[{"quiz_id":1,"choiceSeq":4},{"quiz_id":2,"choiceSeq":3},{"quiz_id":3,"choiceSeq":4}]}}
{"token":"eyJ0eXAiOiJKV1QiLCJhbGciOiJIUzI1NiJ9.eyJ1aWQiOjQwODMyLCJleHBpcmVkIjoxNjAyMzA3MTY1fQ.uIgoZUW01GK4eFeME_PoC1ULwBWFJt5xAeY0q3aAlZA","data":{"method":"PUT","data":[{"quiz_id":1,"choiceSeq":4},{"quiz_id":2,"choiceSeq":2},{"quiz_id":3,"choiceSeq":4}]}}
{"token":"eyJ0eXAiOiJKV1QiLCJhbGciOiJIUzI1NiJ9.eyJ1aWQiOjQ2MzY3LCJleHBpcmVkIjoxNjAyMzA3Mjg1fQ.290u2jQebvlJxpauWwU3np-hJP1b_7Q7bEP3ReXW8vo","data":{"method":"PUT","data":[{"quiz_id":1,"choiceSeq":4},{"quiz_id":2,"choiceSeq":3},{"quiz_id":3,"choiceSeq":4}]}}
{"token":"eyJ0eXAiOiJKV1QiLCJhbGciOiJIUzI1NiJ9.eyJ1aWQiOjExNjAsImV4cGlyZWQiOjE2MDIzMDc0MjJ9.6wDfN9dvSvtPYlFN9199qkgLk2rjuWY62uX7S11_wkc","data":{"method":"PUT","data":[{"quiz_id":1,"choiceSeq":4},{"quiz_id":2,"choiceSeq":1},{"quiz_id":3,"choiceSeq":4}]}}
{"token":"eyJ0eXAiOiJKV1QiLCJhbGciOiJIUzI1NiJ9.eyJ1aWQiOjEyNjM0LCJleHBpcmVkIjoxNjAyMzA3NTY5fQ.q78eW4hB7pprlW2DhVmDXga2zp8Ps8zgdQ00pQumM3w","data":{"method":"PUT","data":[{"quiz_id":1,"choiceSeq":4},{"quiz_id":2,"choiceSeq":4},{"quiz_id":3,"choiceSeq":4}]}}
{"token":"eyJ0eXAiOiJKV1QiLCJhbGciOiJIUzI1NiJ9.eyJ1aWQiOjQxODEwLCJleHBpcmVkIjoxNjAyMzA3NjU4fQ.GcYIdSfbn4rIedYSwLWpB9Z5V5mVs7rnyA_FaOIDqr8","data":{"method":"PUT","data":[{"quiz_id":1,"choiceSeq":4},{"quiz_id":2,"choiceSeq":3},{"quiz_id":3,"choiceSeq":4}]}}
{"token":"eyJ0eXAiOiJKV1QiLCJhbGciOiJIUzI1NiJ9.eyJ1aWQiOjM4MywiZXhwaXJlZCI6MTYwMjMwNzQyNH0.xi7w5mmLqnPZ3eFqb-juuOguiXS-F_b6MRjFSyZXgUQ","data":{"method":"PUT","data":[{"quiz_id":1,"choiceSeq":4},{"quiz_id":2,"choiceSeq":3},{"quiz_id":3,"choiceSeq":4}]}}
{"token":"eyJ0eXAiOiJKV1QiLCJhbGciOiJIUzI1NiJ9.eyJ1aWQiOjE4MzYsImV4cGlyZWQiOjE2MDIzMDgwNjR9.4RenWGtYNWrpZ134FyqELCWWZ4bSRrT_V73thoWn4Gs","data":{"method":"PUT","data":[{"quiz_id":1,"choiceSeq":4},{"quiz_id":2,"choiceSeq":2},{"quiz_id":3,"choiceSeq":4}]}}
{"token":"eyJ0eXAiOiJKV1QiLCJhbGciOiJIUzI1NiJ9.eyJ1aWQiOjQyNzA3LCJleHBpcmVkIjoxNjAyMzA4MTcxfQ.sbzAEz4MI5RYYQ9guwR4udQwJgx2ZhoPK1SMbXiz3_I","data":{"method":"PUT","data":[{"quiz_id":1,"choiceSeq":4},{"quiz_id":2,"choiceSeq":3},{"quiz_id":3,"choiceSeq":3}]}}
{"token":"eyJ0eXAiOiJKV1QiLCJhbGciOiJIUzI1NiJ9.eyJ1aWQiOjYwNDk4LCJleHBpcmVkIjoxNjAyMzA4MjA5fQ.nk-86m9-lTlomRRUxKEl7yg9QnFVjmcJ5FBRonYt6U4","data":{"method":"PUT","data":[{"quiz_id":1,"choiceSeq":4},{"quiz_id":2,"choiceSeq":3},{"quiz_id":3,"choiceSeq":3}]}}
{"token":"eyJ0eXAiOiJKV1QiLCJhbGciOiJIUzI1NiJ9.eyJ1aWQiOjQ0Mjg2LCJleHBpcmVkIjoxNjAyMzA3OTA3fQ.kLxgh8V-uyJ7_zpMuXXtX-YrQL1eI_QRKlMYVL-KPjg","data":{"method":"PUT","data":[{"quiz_id":1,"choiceSeq":4},{"quiz_id":2,"choiceSeq":3},{"quiz_id":3,"choiceSeq":4}]}}
{"token":"eyJ0eXAiOiJKV1QiLCJhbGciOiJIUzI1NiJ9.eyJ1aWQiOjQ2NDYwLCJleHBpcmVkIjoxNjAyMzA4MTAwfQ.M5r-ZBd3qre8KX5DZCiw15fUD9XsXHT5jv_XjnLU7oo","data":{"method":"PUT","data":[{"quiz_id":1,"choiceSeq":4},{"quiz_id":2,"choiceSeq":1},{"quiz_id":3,"choiceSeq":4}]}}
{"token":"eyJ0eXAiOiJKV1QiLCJhbGciOiJIUzI1NiJ9.eyJ1aWQiOjQ2ODUwLCJleHBpcmVkIjoxNjAyMzA4MzEwfQ.1-cPzdPGDr_oNpBYcN8fKm2Rju5BsaCvGrEuNgzw6_c","data":{"method":"PUT","data":[{"quiz_id":1,"choiceSeq":4},{"quiz_id":2,"choiceSeq":2},{"quiz_id":3,"choiceSeq":4}]}}
{"token":"eyJ0eXAiOiJKV1QiLCJhbGciOiJIUzI1NiJ9.eyJ1aWQiOjM4MSwiZXhwaXJlZCI6MTYwMjMwODE2Mn0.yWfemWliZtbkXe6A0ubJCDt3Jj2Bm2zLrgL-aMLH3zM","data":{"method":"PUT","data":[{"quiz_id":1,"choiceSeq":2},{"quiz_id":2,"choiceSeq":3},{"quiz_id":3,"choiceSeq":4}]}}
{"token":"eyJ0eXAiOiJKV1QiLCJhbGciOiJIUzI1NiJ9.eyJ1aWQiOjQzOCwiZXhwaXJlZCI6MTYwMjMwODU4MH0.ve5cdUcFLjr4dzoa5YQjruGaqItijr0kgLy464Gk6XM","data":{"method":"PUT","data":[{"quiz_id":1,"choiceSeq":1},{"quiz_id":2,"choiceSeq":2},{"quiz_id":3,"choiceSeq":1}]}}
{"token":"eyJ0eXAiOiJKV1QiLCJhbGciOiJIUzI1NiJ9.eyJ1aWQiOjQ0MTI4LCJleHBpcmVkIjoxNjAyMzA4MDkyfQ.BmRbktx8JCkS3q3BGBElOk2I0mfFHjFVYAOZRko6eOY","data":{"method":"PUT","data":[{"quiz_id":1,"choiceSeq":4},{"quiz_id":2,"choiceSeq":3},{"quiz_id":3,"choiceSeq":4}]}}
{"token":"eyJ0eXAiOiJKV1QiLCJhbGciOiJIUzI1NiJ9.eyJ1aWQiOjQzNzQ5LCJleHBpcmVkIjoxNjAyMzA4ODIxfQ.ycMplKwaLvDMJhaIJu4A6GRXKeRokvfbsv7qToHEyzk","data":{"method":"PUT","data":[{"quiz_id":1,"choiceSeq":4},{"quiz_id":2,"choiceSeq":3},{"quiz_id":3,"choiceSeq":4}]}}
{"token":"eyJ0eXAiOiJKV1QiLCJhbGciOiJIUzI1NiJ9.eyJ1aWQiOjU4NSwiZXhwaXJlZCI6MTYwMjMwOTAyMX0.K8v8THUgaQw9B8Euifu4ZKnKC9dgiAHCDQBsnrBUAr4","data":{"method":"PUT","data":[{"quiz_id":1,"choiceSeq":1},{"quiz_id":2,"choiceSeq":2},{"quiz_id":3,"choiceSeq":1}]}}
{"token":"eyJ0eXAiOiJKV1QiLCJhbGciOiJIUzI1NiJ9.eyJ1aWQiOjExNzcsImV4cGlyZWQiOjE2MDIzMDg4ODd9.d82iPMw7DqhQFuqIjmeqH09Sg8COzPUY0s0_Q6Fcl1k","data":{"method":"PUT","data":[{"quiz_id":1,"choiceSeq":4},{"quiz_id":2,"choiceSeq":3},{"quiz_id":3,"choiceSeq":4}]}}
{"token":"eyJ0eXAiOiJKV1QiLCJhbGciOiJIUzI1NiJ9.eyJ1aWQiOjQ3MTYwLCJleHBpcmVkIjoxNjAyMzA5MDIyfQ.UO8-8I60nsj8sRCgQnLEkzhATGtqhOsWvSadDGNIc-4","data":{"method":"PUT","data":[{"quiz_id":1,"choiceSeq":4},{"quiz_id":2,"choiceSeq":3},{"quiz_id":3,"choiceSeq":4}]}}
{"token":"eyJ0eXAiOiJKV1QiLCJhbGciOiJIUzI1NiJ9.eyJ1aWQiOjIwNCwiZXhwaXJlZCI6MTYwMjMwOTA5Nn0.POxzDCq4d0_xbVFg6uqCGT22JNGcfMfBZmp04r4wBL0","data":{"method":"PUT","data":[{"quiz_id":1,"choiceSeq":4},{"quiz_id":2,"choiceSeq":2},{"quiz_id":3,"choiceSeq":4}]}}
{"token":"eyJ0eXAiOiJKV1QiLCJhbGciOiJIUzI1NiJ9.eyJ1aWQiOjQxMjg0LCJleHBpcmVkIjoxNjAyMzA5MTI0fQ.thE6Y3vFEzozcYaPz7NAJVwdIBKNRyZaO59UuJn0cTY","data":{"method":"PUT","data":[{"quiz_id":1,"choiceSeq":4},{"quiz_id":2,"choiceSeq":3},{"quiz_id":3,"choiceSeq":4}]}}
{"token":"eyJ0eXAiOiJKV1QiLCJhbGciOiJIUzI1NiJ9.eyJ1aWQiOjE5OTksImV4cGlyZWQiOjE2MDIzMDkyMDJ9._KFnHvvG-2jh5bP4OjMxdSL3MS97Per9AtI21RwE8Js","data":{"method":"PUT","data":[{"quiz_id":1,"choiceSeq":1},{"quiz_id":2,"choiceSeq":3},{"quiz_id":3,"choiceSeq":4}]}}
{"token":"eyJ0eXAiOiJKV1QiLCJhbGciOiJIUzI1NiJ9.eyJ1aWQiOjIwNjQ5LCJleHBpcmVkIjoxNjAyMzA5NDExfQ.FBPrzfgHqWx3R42b7s1Yr2HQ8C8f9GUrgBdJYp4EgYc","data":{"method":"PUT","data":[{"quiz_id":1,"choiceSeq":4},{"quiz_id":2,"choiceSeq":3},{"quiz_id":3,"choiceSeq":4}]}}
{"token":"eyJ0eXAiOiJKV1QiLCJhbGciOiJIUzI1NiJ9.eyJ1aWQiOjEzMDksImV4cGlyZWQiOjE2MDIzMDk0NzR9.pX_JEgTRP4_dVwQDdnhMmeIc1-pCek6Kc43ewILd0ek","data":{"method":"PUT","data":[{"quiz_id":1,"choiceSeq":4},{"quiz_id":2,"choiceSeq":2},{"quiz_id":3,"choiceSeq":4}]}}
{"token":"eyJ0eXAiOiJKV1QiLCJhbGciOiJIUzI1NiJ9.eyJ1aWQiOjQxMjU3LCJleHBpcmVkIjoxNjAyMzA5NjQ3fQ.mUaZR9MW5344O3YvzNnZdnunw1XDIQbkjup8DDh5X5Q","data":{"method":"PUT","data":[{"quiz_id":1,"choiceSeq":4},{"quiz_id":2,"choiceSeq":4},{"quiz_id":3,"choiceSeq":4}]}}
{"token":"eyJ0eXAiOiJKV1QiLCJhbGciOiJIUzI1NiJ9.eyJ1aWQiOjIzNjksImV4cGlyZWQiOjE2MDIzMDk2Mzl9.vaMslJa2N_iVIuMsHmIYij6dWgTQTzagxhP9lB9Rhd8","data":{"method":"PUT","data":[{"quiz_id":1,"choiceSeq":4},{"quiz_id":2,"choiceSeq":2},{"quiz_id":3,"choiceSeq":3}]}}
{"token":"eyJ0eXAiOiJKV1QiLCJhbGciOiJIUzI1NiJ9.eyJ1aWQiOjQyNTgwLCJleHBpcmVkIjoxNjAyMzA5ODQwfQ.xI8BhaS88NLGZ6KDVlPhRYMmlBP7IcqTL7Ss7lXnUXk","data":{"method":"PUT","data":[{"quiz_id":1,"choiceSeq":4},{"quiz_id":2,"choiceSeq":3},{"quiz_id":3,"choiceSeq":4}]}}
{"token":"eyJ0eXAiOiJKV1QiLCJhbGciOiJIUzI1NiJ9.eyJ1aWQiOjQwMzU5LCJleHBpcmVkIjoxNjAyMzEwMDczfQ.1W2yz8eObQ7OrKTaR6m9gkJUTP-pipdGVZwg61iLFno","data":{"method":"PUT","data":[{"quiz_id":1,"choiceSeq":4},{"quiz_id":2,"choiceSeq":3},{"quiz_id":3,"choiceSeq":4}]}}
{"token":"eyJ0eXAiOiJKV1QiLCJhbGciOiJIUzI1NiJ9.eyJ1aWQiOjIwNzU3LCJleHBpcmVkIjoxNjAyMzEwMTA3fQ.lTppNJg6AhK1qOrPFVnANPdwJxSn9GK_XFiRPo2MdpM","data":{"method":"PUT","data":[{"quiz_id":1,"choiceSeq":4},{"quiz_id":2,"choiceSeq":3},{"quiz_id":3,"choiceSeq":4}]}}
{"token":"eyJ0eXAiOiJKV1QiLCJhbGciOiJIUzI1NiJ9.eyJ1aWQiOjQ0MDkwLCJleHBpcmVkIjoxNjAyMzEwMDkxfQ.9WXp1SMsRqqDubnjvOqhDb3dL-TgmRNwktSdPFdSk6A","data":{"method":"PUT","data":[{"quiz_id":1,"choiceSeq":4},{"quiz_id":2,"choiceSeq":2},{"quiz_id":3,"choiceSeq":4}]}}
{"token":"eyJ0eXAiOiJKV1QiLCJhbGciOiJIUzI1NiJ9.eyJ1aWQiOjQxNzk4LCJleHBpcmVkIjoxNjAyMzEwMjkyfQ.FNl7R7NeKCfYNP2y4NSf6BMuNBlM_6SIIbdvc50-WdU","data":{"method":"PUT","data":[{"quiz_id":1,"choiceSeq":4},{"quiz_id":2,"choiceSeq":3},{"quiz_id":3,"choiceSeq":4}]}}
{"token":"eyJ0eXAiOiJKV1QiLCJhbGciOiJIUzI1NiJ9.eyJ1aWQiOjQwODU1LCJleHBpcmVkIjoxNjAyMzEwNDI1fQ.kaOTdb9IkcF7p-WcJM07XFurkUbFmHtYRQquQWYnD8k","data":{"method":"PUT","data":[{"quiz_id":1,"choiceSeq":4},{"quiz_id":2,"choiceSeq":3},{"quiz_id":3,"choiceSeq":3}]}}
{"token":"eyJ0eXAiOiJKV1QiLCJhbGciOiJIUzI1NiJ9.eyJ1aWQiOjQ0NDU4LCJleHBpcmVkIjoxNjAyMzEwNDcwfQ.1xmwZCo15NiRhFhgCosvUiO-n4N5x41gVUQ8r330v1U","data":{"method":"PUT","data":[{"quiz_id":1,"choiceSeq":4},{"quiz_id":2,"choiceSeq":3},{"quiz_id":3,"choiceSeq":4}]}}
{"token":"eyJ0eXAiOiJKV1QiLCJhbGciOiJIUzI1NiJ9.eyJ1aWQiOjQyNzkyLCJleHBpcmVkIjoxNjAyMzEwNDk0fQ.KqlCR-kqjogeZiTxJIp1q_lJ2hjocUOqA7Tts7dSDhE","data":{"method":"PUT","data":[{"quiz_id":1,"choiceSeq":4},{"quiz_id":2,"choiceSeq":2},{"quiz_id":3,"choiceSeq":4}]}}
{"token":"eyJ0eXAiOiJKV1QiLCJhbGciOiJIUzI1NiJ9.eyJ1aWQiOjQwMzMxLCJleHBpcmVkIjoxNjAyMzEwNTYwfQ.1tKCi2zMh7sW8RW0Q5rI2ditEqKHLKKn2lxwN1Bl9hU","data":{"method":"PUT","data":[{"quiz_id":1,"choiceSeq":4},{"quiz_id":2,"choiceSeq":3},{"quiz_id":3,"choiceSeq":4}]}}
{"token":"eyJ0eXAiOiJKV1QiLCJhbGciOiJIUzI1NiJ9.eyJ1aWQiOjUwNDExLCJleHBpcmVkIjoxNjAyMzEwNTU5fQ.uzcUAYP4PzIZII4_G4lAwczzuMOSFjXhc0-eycpOlek","data":{"method":"PUT","data":[{"quiz_id":1,"choiceSeq":4},{"quiz_id":2,"choiceSeq":3},{"quiz_id":3,"choiceSeq":4}]}}
{"token":"eyJ0eXAiOiJKV1QiLCJhbGciOiJIUzI1NiJ9.eyJ1aWQiOjQ2NzI5LCJleHBpcmVkIjoxNjAyMzEwNjA4fQ.6UENwiZrskFV72jbImweZOMeH-ZGQ5pplgGTpGoZHqA","data":{"method":"PUT","data":[{"quiz_id":1,"choiceSeq":4},{"quiz_id":2,"choiceSeq":3},{"quiz_id":3,"choiceSeq":4}]}}
{"token":"eyJ0eXAiOiJKV1QiLCJhbGciOiJIUzI1NiJ9.eyJ1aWQiOjU0MiwiZXhwaXJlZCI6MTYwMjMxMDM5M30.TSdhCW0DI_P9tNEZYAyy5TIwh8BtagwDt9w6LnmXzSg","data":{"method":"PUT","data":[{"quiz_id":1,"choiceSeq":4},{"quiz_id":2,"choiceSeq":3},{"quiz_id":3,"choiceSeq":4}]}}
{"token":"eyJ0eXAiOiJKV1QiLCJhbGciOiJIUzI1NiJ9.eyJ1aWQiOjQzNTk0LCJleHBpcmVkIjoxNjAyMzEwNzcwfQ.SPOEapnHOOViPymAkuzLTvXwKFx-WkKSSDfu1FmT8G0","data":{"method":"PUT","data":[{"quiz_id":1,"choiceSeq":4},{"quiz_id":2,"choiceSeq":3},{"quiz_id":3,"choiceSeq":4}]}}
{"token":"eyJ0eXAiOiJKV1QiLCJhbGciOiJIUzI1NiJ9.eyJ1aWQiOjE3OTEsImV4cGlyZWQiOjE2MDIzMTA3MTR9.GKaS6kgZ6E1LjDBUehsItQEXtz3HLVgID48Y3QkghIU","data":{"method":"PUT","data":[{"quiz_id":1,"choiceSeq":4},{"quiz_id":2,"choiceSeq":3},{"quiz_id":3,"choiceSeq":4}]}}
{"token":"eyJ0eXAiOiJKV1QiLCJhbGciOiJIUzI1NiJ9.eyJ1aWQiOjQyMTI3LCJleHBpcmVkIjoxNjAyMzA5Nzk2fQ.NtKH_QzfVOBlSyJYeDtmRm6rMnIGn-V0kCb5WzGmrcs","data":{"method":"PUT","data":[{"quiz_id":1,"choiceSeq":4},{"quiz_id":2,"choiceSeq":3},{"quiz_id":3,"choiceSeq":4}]}}
{"token":"eyJ0eXAiOiJKV1QiLCJhbGciOiJIUzI1NiJ9.eyJ1aWQiOjYwMTQ5LCJleHBpcmVkIjoxNjAyMzExMTA4fQ.2d5qTcFcJSfth9aHdgAAx6WfWeqAc2Fm9Fn6dSkZGpw","data":{"method":"PUT","data":[{"quiz_id":1,"choiceSeq":4},{"quiz_id":2,"choiceSeq":3},{"quiz_id":3,"choiceSeq":3}]}}
{"token":"eyJ0eXAiOiJKV1QiLCJhbGciOiJIUzI1NiJ9.eyJ1aWQiOjE0MzgsImV4cGlyZWQiOjE2MDIzMTA4NjN9.vwqkgnr7gBreseLzNtLbK2YNkhPrq2nICQxO7PrA53s","data":{"method":"PUT","data":[{"quiz_id":1,"choiceSeq":4},{"quiz_id":2,"choiceSeq":2},{"quiz_id":3,"choiceSeq":3}]}}
{"token":"eyJ0eXAiOiJKV1QiLCJhbGciOiJIUzI1NiJ9.eyJ1aWQiOjEwODIsImV4cGlyZWQiOjE2MDIzMTEwNTJ9.LtvcKljqSc_9lYrpe7iZxjTdmBD7ZPQ1o7gPs_mQdWM","data":{"method":"PUT","data":[{"quiz_id":1,"choiceSeq":4},{"quiz_id":2,"choiceSeq":3},{"quiz_id":3,"choiceSeq":4}]}}
{"token":"eyJ0eXAiOiJKV1QiLCJhbGciOiJIUzI1NiJ9.eyJ1aWQiOjMwOSwiZXhwaXJlZCI6MTYwMjMxMTA5Nn0.p48yYMMI1TxOvY3LOFSaMoxOBS61HUMxAtGVzr9f4cc","data":{"method":"PUT","data":[{"quiz_id":1,"choiceSeq":4},{"quiz_id":2,"choiceSeq":3},{"quiz_id":3,"choiceSeq":4}]}}
{"token":"eyJ0eXAiOiJKV1QiLCJhbGciOiJIUzI1NiJ9.eyJ1aWQiOjExMDY1LCJleHBpcmVkIjoxNjAyMzExMTg3fQ.xwCrWgKReFHkoBBDiTil-5bYfhCoDpVtm5KPZDFf6Jw","data":{"method":"PUT","data":[{"quiz_id":1,"choiceSeq":4},{"quiz_id":2,"choiceSeq":3},{"quiz_id":3,"choiceSeq":4}]}}
{"token":"eyJ0eXAiOiJKV1QiLCJhbGciOiJIUzI1NiJ9.eyJ1aWQiOjQ1NjkwLCJleHBpcmVkIjoxNjAyMzExMTcwfQ.e9Iph5UOETVh3b47M6pifxyduPmEiSS7Y6q-WEJnC14","data":{"method":"PUT","data":[{"quiz_id":1,"choiceSeq":4},{"quiz_id":2,"choiceSeq":3},{"quiz_id":3,"choiceSeq":4}]}}
{"token":"eyJ0eXAiOiJKV1QiLCJhbGciOiJIUzI1NiJ9.eyJ1aWQiOjQ3MjA3LCJleHBpcmVkIjoxNjAyMzEwOTU5fQ.j0MIQRL1jpyeCNI_pPmz9JLIss1EaMFeCFRuDOEV3Pg","data":{"method":"PUT","data":[{"quiz_id":1,"choiceSeq":4},{"quiz_id":2,"choiceSeq":1},{"quiz_id":3,"choiceSeq":4}]}}
{"token":"eyJ0eXAiOiJKV1QiLCJhbGciOiJIUzI1NiJ9.eyJ1aWQiOjQ2NDE0LCJleHBpcmVkIjoxNjAyMzExMjUzfQ.pDMHhVnv-f-KK3iE3loXgU7rbwB8DyDl4rHG4EzTqD4","data":{"method":"PUT","data":[{"quiz_id":1,"choiceSeq":4},{"quiz_id":2,"choiceSeq":3},{"quiz_id":3,"choiceSeq":4}]}}
{"token":"eyJ0eXAiOiJKV1QiLCJhbGciOiJIUzI1NiJ9.eyJ1aWQiOjQwODg1LCJleHBpcmVkIjoxNjAyMzExMjcwfQ.Euurlow8AvnoNUn_T8bAU5LZ5EOWZK1foC5BINZdbnU","data":{"method":"PUT","data":[{"quiz_id":1,"choiceSeq":4},{"quiz_id":2,"choiceSeq":3},{"quiz_id":3,"choiceSeq":4}]}}
{"token":"eyJ0eXAiOiJKV1QiLCJhbGciOiJIUzI1NiJ9.eyJ1aWQiOjIwNzU4LCJleHBpcmVkIjoxNjAyMzExMjk4fQ.xdZUAamI75eblC4h1MeCX-VJb7OHzXkLdghEekKyqSE","data":{"method":"PUT","data":[{"quiz_id":1,"choiceSeq":4},{"quiz_id":2,"choiceSeq":3},{"quiz_id":3,"choiceSeq":4}]}}
{"token":"eyJ0eXAiOiJKV1QiLCJhbGciOiJIUzI1NiJ9.eyJ1aWQiOjQxNDY0LCJleHBpcmVkIjoxNjAyMzExMDc0fQ.6CQUYCFqXXmBBMJTeF9MDHxCeszE-KGfoiuOo5fX4vk","data":{"method":"PUT","data":[{"quiz_id":1,"choiceSeq":4},{"quiz_id":2,"choiceSeq":3},{"quiz_id":3,"choiceSeq":4}]}}
{"token":"eyJ0eXAiOiJKV1QiLCJhbGciOiJIUzI1NiJ9.eyJ1aWQiOjQwOTk1LCJleHBpcmVkIjoxNjAyMzExMzUzfQ.dDnPn7oh3YjM3ke6xlPqknIL0yL0qPUlvKqcbP5AsDA","data":{"method":"PUT","data":[{"quiz_id":1,"choiceSeq":4},{"quiz_id":2,"choiceSeq":2},{"quiz_id":3,"choiceSeq":3}]}}
{"token":"eyJ0eXAiOiJKV1QiLCJhbGciOiJIUzI1NiJ9.eyJ1aWQiOjQ0MDg4LCJleHBpcmVkIjoxNjAyMzExMzcyfQ.sO5CS7mvRGySVxnvl3ucXa29FA4IMICisOXJZjgP4ew","data":{"method":"PUT","data":[{"quiz_id":1,"choiceSeq":4},{"quiz_id":2,"choiceSeq":3},{"quiz_id":3,"choiceSeq":4}]}}
{"token":"eyJ0eXAiOiJKV1QiLCJhbGciOiJIUzI1NiJ9.eyJ1aWQiOjUwNDE3LCJleHBpcmVkIjoxNjAyMzExMzA3fQ.nDDhOmMGZxasyDf13ucDBEk6fTjscdRJP-w40iizJB0","data":{"method":"PUT","data":[{"quiz_id":1,"choiceSeq":4},{"quiz_id":2,"choiceSeq":3},{"quiz_id":3,"choiceSeq":4}]}}
{"token":"eyJ0eXAiOiJKV1QiLCJhbGciOiJIUzI1NiJ9.eyJ1aWQiOjQyMDEwLCJleHBpcmVkIjoxNjAyMzExNDM0fQ.wHrkBUiLTpKjwzG_EDWlFddowuTvA80W1A_Kgr4Jhrc","data":{"method":"PUT","data":[{"quiz_id":1,"choiceSeq":4},{"quiz_id":2,"choiceSeq":3},{"quiz_id":3,"choiceSeq":4}]}}
{"token":"eyJ0eXAiOiJKV1QiLCJhbGciOiJIUzI1NiJ9.eyJ1aWQiOjQ3MzA2LCJleHBpcmVkIjoxNjAyMzExNDI3fQ.ILJuIR2sr3gYmgTN6_2TAaiILWqJ7vQc_D8jt7lbrpI","data":{"method":"PUT","data":[{"quiz_id":1,"choiceSeq":4},{"quiz_id":2,"choiceSeq":3},{"quiz_id":3,"choiceSeq":4}]}}
{"token":"eyJ0eXAiOiJKV1QiLCJhbGciOiJIUzI1NiJ9.eyJ1aWQiOjEyNjU0LCJleHBpcmVkIjoxNjAyMzExNDczfQ.eXI6VMt8KXmONDkV9qQpHmoBsqmaW732siRVci7OPQM","data":{"method":"PUT","data":[{"quiz_id":1,"choiceSeq":4},{"quiz_id":2,"choiceSeq":3},{"quiz_id":3,"choiceSeq":4}]}}
{"token":"eyJ0eXAiOiJKV1QiLCJhbGciOiJIUzI1NiJ9.eyJ1aWQiOjQ2NDcxLCJleHBpcmVkIjoxNjAyMzEwODQyfQ.UQLtRV6SsqmkHEvZ7ukBQYjNehsFjX9acspZsPzYqgo","data":{"method":"PUT","data":[{"quiz_id":1,"choiceSeq":4},{"quiz_id":2,"choiceSeq":3},{"quiz_id":3,"choiceSeq":4}]}}
{"token":"eyJ0eXAiOiJKV1QiLCJhbGciOiJIUzI1NiJ9.eyJ1aWQiOjQxMTk5LCJleHBpcmVkIjoxNjAyMzExNjQzfQ.9H426oVrOmUNndqblWIThSO_H9DtEI_FKKonhb0YwPU","data":{"method":"PUT","data":[{"quiz_id":1,"choiceSeq":4},{"quiz_id":2,"choiceSeq":3},{"quiz_id":3,"choiceSeq":4}]}}
{"token":"eyJ0eXAiOiJKV1QiLCJhbGciOiJIUzI1NiJ9.eyJ1aWQiOjQ1NzQwLCJleHBpcmVkIjoxNjAyMzExNzEyfQ.ZqB23-uKQOgU11M8qLikOF8SHvhUwzvjb4yDWosjSx4","data":{"method":"PUT","data":[{"quiz_id":1,"choiceSeq":4},{"quiz_id":2,"choiceSeq":3},{"quiz_id":3,"choiceSeq":4}]}}
{"token":"eyJ0eXAiOiJKV1QiLCJhbGciOiJIUzI1NiJ9.eyJ1aWQiOjUwODQzLCJleHBpcmVkIjoxNjAyMzExNzkzfQ.t2n_otJ5-hU4meRqBVBIyhgy8pdQ-Ryw_2p5xcN3J9I","data":{"method":"PUT","data":[{"quiz_id":1,"choiceSeq":4},{"quiz_id":2,"choiceSeq":3},{"quiz_id":3,"choiceSeq":4}]}}
{"token":"eyJ0eXAiOiJKV1QiLCJhbGciOiJIUzI1NiJ9.eyJ1aWQiOjU3MiwiZXhwaXJlZCI6MTYwMjMxMTc2OH0.8cN1uG_tqrsvRhdfUWFI9ifb5Y1tcWU6SzVdk_Zte68","data":{"method":"PUT","data":[{"quiz_id":1,"choiceSeq":4},{"quiz_id":2,"choiceSeq":3},{"quiz_id":3,"choiceSeq":4}]}}
{"token":"eyJ0eXAiOiJKV1QiLCJhbGciOiJIUzI1NiJ9.eyJ1aWQiOjczNSwiZXhwaXJlZCI6MTYwMjMxMTg5NH0.pzIhKu2H88iRRc_8g5_43y8NdMFTKcj55MueNmOgfRE","data":{"method":"PUT","data":[{"quiz_id":1,"choiceSeq":4},{"quiz_id":2,"choiceSeq":3},{"quiz_id":3,"choiceSeq":4}]}}
{"token":"eyJ0eXAiOiJKV1QiLCJhbGciOiJIUzI1NiJ9.eyJ1aWQiOjQwNTgzLCJleHBpcmVkIjoxNjAyMzEwOTk4fQ.aJI50n3DsX0Wr63DA3qZph9BVuYnscNZBKHRgqr7yyA","data":{"method":"PUT","data":[{"quiz_id":1,"choiceSeq":4},{"quiz_id":2,"choiceSeq":3},{"quiz_id":3,"choiceSeq":4}]}}
{"token":"eyJ0eXAiOiJKV1QiLCJhbGciOiJIUzI1NiJ9.eyJ1aWQiOjE5MDMsImV4cGlyZWQiOjE2MDIzMTE5NjB9.fqc0I0TQxwHwZy7L5KkGOkyLpWOMhvrldTDC552l0Rg","data":{"method":"PUT","data":[{"quiz_id":1,"choiceSeq":4},{"quiz_id":2,"choiceSeq":3},{"quiz_id":3,"choiceSeq":4}]}}
{"token":"eyJ0eXAiOiJKV1QiLCJhbGciOiJIUzI1NiJ9.eyJ1aWQiOjQyODU0LCJleHBpcmVkIjoxNjAyMzExOTkyfQ.yOg_ezsbl6lsKEBgNM4chkr6DOVD_lDdnywURNk-xkw","data":{"method":"PUT","data":[{"quiz_id":1,"choiceSeq":4},{"quiz_id":2,"choiceSeq":3},{"quiz_id":3,"choiceSeq":4}]}}
{"token":"eyJ0eXAiOiJKV1QiLCJhbGciOiJIUzI1NiJ9.eyJ1aWQiOjE3MTksImV4cGlyZWQiOjE2MDIzMTE1NDJ9.ESssZHZp03t2GtgkeTynFuEUgKslh30YRVCYnWu7Ono","data":{"method":"PUT","data":[{"quiz_id":1,"choiceSeq":4},{"quiz_id":2,"choiceSeq":3},{"quiz_id":3,"choiceSeq":4}]}}
{"token":"eyJ0eXAiOiJKV1QiLCJhbGciOiJIUzI1NiJ9.eyJ1aWQiOjUwNDQ2LCJleHBpcmVkIjoxNjAyMzExMzE0fQ.LmxXYMcrTSFWpai30w3KFeKQ5U6uATCT5Ab-98M03Sw","data":{"method":"PUT","data":[{"quiz_id":1,"choiceSeq":4},{"quiz_id":2,"choiceSeq":3},{"quiz_id":3,"choiceSeq":4}]}}
{"token":"eyJ0eXAiOiJKV1QiLCJhbGciOiJIUzI1NiJ9.eyJ1aWQiOjUwMjM0LCJleHBpcmVkIjoxNjAyMzEyMTc4fQ.jvDqQErTUYT_ZSKW50xf-DVzZoXt9tjcdapT49Bu1mo","data":{"method":"PUT","data":[{"quiz_id":1,"choiceSeq":4},{"quiz_id":2,"choiceSeq":3},{"quiz_id":3,"choiceSeq":4}]}}
{"token":"eyJ0eXAiOiJKV1QiLCJhbGciOiJIUzI1NiJ9.eyJ1aWQiOjQxMzA1LCJleHBpcmVkIjoxNjAyMzEyMTM4fQ.4Tr8ybwH9IymXMO3AGawUqaUXBkoHGzNf8Y-5djgdww","data":{"method":"PUT","data":[{"quiz_id":1,"choiceSeq":4},{"quiz_id":2,"choiceSeq":3},{"quiz_id":3,"choiceSeq":4}]}}
{"token":"eyJ0eXAiOiJKV1QiLCJhbGciOiJIUzI1NiJ9.eyJ1aWQiOjIwMzksImV4cGlyZWQiOjE2MDIzMTIyMDF9.5yDbRPIIF2_R6qARnUdQebu_mSsOiGaQPF5Q8_Ua3Hw","data":{"method":"PUT","data":[{"quiz_id":1,"choiceSeq":4},{"quiz_id":2,"choiceSeq":3},{"quiz_id":3,"choiceSeq":4}]}}
{"token":"eyJ0eXAiOiJKV1QiLCJhbGciOiJIUzI1NiJ9.eyJ1aWQiOjEyODEsImV4cGlyZWQiOjE2MDIzMTIyNjB9.haPhdOzbMNf5RxjnMxfj7yAKYYoIBABMdZkLF8pHApM","data":{"method":"PUT","data":[{"quiz_id":1,"choiceSeq":4},{"quiz_id":2,"choiceSeq":3},{"quiz_id":3,"choiceSeq":4}]}}
{"token":"eyJ0eXAiOiJKV1QiLCJhbGciOiJIUzI1NiJ9.eyJ1aWQiOjQ0NDYxLCJleHBpcmVkIjoxNjAyMzEyMjc2fQ.cFUFwwAxYyikm7TtgMHLAquA2537ZQr1JgmIWzp4uPE","data":{"method":"PUT","data":[{"quiz_id":1,"choiceSeq":4},{"quiz_id":2,"choiceSeq":3},{"quiz_id":3,"choiceSeq":4}]}}
{"token":"eyJ0eXAiOiJKV1QiLCJhbGciOiJIUzI1NiJ9.eyJ1aWQiOjI4NiwiZXhwaXJlZCI6MTYwMjMxMjIyNH0.xbg-RsA8kOPP9fhynGjyAHo8ACM48qGcv2QBchBtKWk","data":{"method":"PUT","data":[{"quiz_id":1,"choiceSeq":4},{"quiz_id":2,"choiceSeq":4},{"quiz_id":3,"choiceSeq":1}]}}
{"token":"eyJ0eXAiOiJKV1QiLCJhbGciOiJIUzI1NiJ9.eyJ1aWQiOjUwODk5LCJleHBpcmVkIjoxNjAyMzExMTI5fQ.1_34NbFR9KX-zWiSb1B9LnhpR_mE0Hsm9bZcsQEtJO0","data":{"method":"PUT","data":[{"quiz_id":1,"choiceSeq":4},{"quiz_id":2,"choiceSeq":3},{"quiz_id":3,"choiceSeq":4}]}}
{"token":"eyJ0eXAiOiJKV1QiLCJhbGciOiJIUzI1NiJ9.eyJ1aWQiOjQyMDAwLCJleHBpcmVkIjoxNjAyMzEyNDEwfQ.8PNLaCpYbSdTffvzrLVc0p81t3xaoYr0UhBCRcNOBP4","data":{"method":"PUT","data":[{"quiz_id":1,"choiceSeq":4},{"quiz_id":2,"choiceSeq":3},{"quiz_id":3,"choiceSeq":4}]}}
{"token":"eyJ0eXAiOiJKV1QiLCJhbGciOiJIUzI1NiJ9.eyJ1aWQiOjYwMDYxLCJleHBpcmVkIjoxNjAyMzA0NzI1fQ.WKEQe77FUb4HS1FGw7YTsnpYl42lPnQvXJj9M6wXgNQ","data":{"method":"PUT","data":[{"quiz_id":1,"choiceSeq":1},{"quiz_id":2,"choiceSeq":3},{"quiz_id":3,"choiceSeq":3}]}}
{"token":"eyJ0eXAiOiJKV1QiLCJhbGciOiJIUzI1NiJ9.eyJ1aWQiOjQ2MTU2LCJleHBpcmVkIjoxNjAyMzEyMjA3fQ.-YjMh47BrSS4ZWFYo8yxmN1Pc2qpI0Sz0L4B5DujQ1A","data":{"method":"PUT","data":[{"quiz_id":1,"choiceSeq":4},{"quiz_id":2,"choiceSeq":1},{"quiz_id":3,"choiceSeq":4}]}}
{"token":"eyJ0eXAiOiJKV1QiLCJhbGciOiJIUzI1NiJ9.eyJ1aWQiOjQyNzc2LCJleHBpcmVkIjoxNjAyMzEyNTUxfQ.V9IEy6Pls73ICYaWa5BsalLlaX6LCO_2YxDLson5MD4","data":{"method":"PUT","data":[{"quiz_id":1,"choiceSeq":4},{"quiz_id":2,"choiceSeq":3},{"quiz_id":3,"choiceSeq":4}]}}
{"token":"eyJ0eXAiOiJKV1QiLCJhbGciOiJIUzI1NiJ9.eyJ1aWQiOjQ2NTUwLCJleHBpcmVkIjoxNjAyMzEzNDA2fQ.jz9pT0aZHy7t6c7T2Gqe7wJN-3uMZyXuhCvUe4_uP5I","data":{"method":"PUT","data":[{"quiz_id":1,"choiceSeq":4},{"quiz_id":2,"choiceSeq":3},{"quiz_id":3,"choiceSeq":4}]}}
{"token":"eyJ0eXAiOiJKV1QiLCJhbGciOiJIUzI1NiJ9.eyJ1aWQiOjQxNDE0LCJleHBpcmVkIjoxNjAyMzEzMjMxfQ.aS7NYfTNM1qijojC_aKhsBpaqBVS7WXxTE_B8awwQY8","data":{"method":"PUT","data":[{"quiz_id":1,"choiceSeq":4},{"quiz_id":2,"choiceSeq":3},{"quiz_id":3,"choiceSeq":4}]}}
{"token":"eyJ0eXAiOiJKV1QiLCJhbGciOiJIUzI1NiJ9.eyJ1aWQiOjQzNTUwLCJleHBpcmVkIjoxNjAyMzEzNjQzfQ.VvAczl73rQO9zgbh8tfQEbciq8ofJ0CIvF_s39fdO-0","data":{"method":"PUT","data":[{"quiz_id":1,"choiceSeq":4},{"quiz_id":2,"choiceSeq":3},{"quiz_id":3,"choiceSeq":4}]}}
{"token":"eyJ0eXAiOiJKV1QiLCJhbGciOiJIUzI1NiJ9.eyJ1aWQiOjQ0MTAzLCJleHBpcmVkIjoxNjAyMzEwMDQzfQ.k7QTzMwyySO5cISZgAsfZ25eNrw0dfWQWDJKqgLb6-M","data":{"method":"PUT","data":[{"quiz_id":1,"choiceSeq":4},{"quiz_id":2,"choiceSeq":3},{"quiz_id":3,"choiceSeq":4}]}}
{"token":"eyJ0eXAiOiJKV1QiLCJhbGciOiJIUzI1NiJ9.eyJ1aWQiOjQwMzcyLCJleHBpcmVkIjoxNjAyMzEzODQ5fQ.YHag3Ge8cTZ8IfMwNDXH2hluTSyGFOGWJLbAjXj8x-8","data":{"method":"PUT","data":[{"quiz_id":1,"choiceSeq":4},{"quiz_id":2,"choiceSeq":3},{"quiz_id":3,"choiceSeq":4}]}}
{"token":"eyJ0eXAiOiJKV1QiLCJhbGciOiJIUzI1NiJ9.eyJ1aWQiOjExMDAxLCJleHBpcmVkIjoxNjAyMzEzNjY2fQ.JBGaP1far4wUiLsz9I9hH5G2ofukRXAyRVHDkddwEXY","data":{"method":"PUT","data":[{"quiz_id":1,"choiceSeq":4},{"quiz_id":2,"choiceSeq":3},{"quiz_id":3,"choiceSeq":4}]}}
{"token":"eyJ0eXAiOiJKV1QiLCJhbGciOiJIUzI1NiJ9.eyJ1aWQiOjQwMDI3LCJleHBpcmVkIjoxNjAyMzEzOTU5fQ.TldUN5WLHfjblt7s7LO_XcDAWbAW3U2-EvygioQtZIo","data":{"method":"PUT","data":[{"quiz_id":1,"choiceSeq":4},{"quiz_id":2,"choiceSeq":3},{"quiz_id":3,"choiceSeq":4}]}}
{"token":"eyJ0eXAiOiJKV1QiLCJhbGciOiJIUzI1NiJ9.eyJ1aWQiOjEyNDI5LCJleHBpcmVkIjoxNjAyMzE0MDA4fQ.JoVyj9jKNd-h_neg8GHqoloZJoLktsfhy1oYcgaZc3E","data":{"method":"PUT","data":[{"quiz_id":1,"choiceSeq":4},{"quiz_id":2,"choiceSeq":3},{"quiz_id":3,"choiceSeq":4}]}}
{"token":"eyJ0eXAiOiJKV1QiLCJhbGciOiJIUzI1NiJ9.eyJ1aWQiOjQxMDUyLCJleHBpcmVkIjoxNjAyMzE0Mjc0fQ.BLsbTg0iNK7Dq1N5Ldp2JVuF53THJiwLXOIId0cara4","data":{"method":"PUT","data":[{"quiz_id":1,"choiceSeq":4},{"quiz_id":2,"choiceSeq":3},{"quiz_id":3,"choiceSeq":4}]}}
{"token":"eyJ0eXAiOiJKV1QiLCJhbGciOiJIUzI1NiJ9.eyJ1aWQiOjQxMjU1LCJleHBpcmVkIjoxNjAyMzE0MzY5fQ.gfXhK6clkNUrMNuvDmXx51NKnvqKS4uPifUm12eiFpA","data":{"method":"PUT","data":[{"quiz_id":1,"choiceSeq":4},{"quiz_id":2,"choiceSeq":1},{"quiz_id":3,"choiceSeq":3}]}}
{"token":"eyJ0eXAiOiJKV1QiLCJhbGciOiJIUzI1NiJ9.eyJ1aWQiOjIwNTQsImV4cGlyZWQiOjE2MDIzMTQxNzl9.KUwb2EOPh6nFIqz0cp_KrxS3dPVpnMU9xLZo_6FLtuY","data":{"method":"PUT","data":[{"quiz_id":1,"choiceSeq":4},{"quiz_id":2,"choiceSeq":3},{"quiz_id":3,"choiceSeq":4}]}}
{"token":"eyJ0eXAiOiJKV1QiLCJhbGciOiJIUzI1NiJ9.eyJ1aWQiOjQxMjgxLCJleHBpcmVkIjoxNjAyMzE0MjY0fQ.tLULSCd8nWuUlld3aRRmvtqm-7WkjbsKy3a8pueS8-Y","data":{"method":"PUT","data":[{"quiz_id":1,"choiceSeq":1},{"quiz_id":2,"choiceSeq":2},{"quiz_id":3,"choiceSeq":4}]}}
{"token":"eyJ0eXAiOiJKV1QiLCJhbGciOiJIUzI1NiJ9.eyJ1aWQiOjE3ODgsImV4cGlyZWQiOjE2MDIzMTQ0Mjl9.F5XUwKf8lvcREcvuDpapXyIumnuYkvlYxm58TV0Kvoo","data":{"method":"PUT","data":[{"quiz_id":1,"choiceSeq":4},{"quiz_id":2,"choiceSeq":3},{"quiz_id":3,"choiceSeq":4}]}}
{"token":"eyJ0eXAiOiJKV1QiLCJhbGciOiJIUzI1NiJ9.eyJ1aWQiOjQ2ODg2LCJleHBpcmVkIjoxNjAyMzE0ODExfQ.B4ywkyYV3K9Vg6Wz1WnqQ4NjPuiUISSUQ6KMzADQwis","data":{"method":"PUT","data":[{"quiz_id":1,"choiceSeq":1},{"quiz_id":2,"choiceSeq":3},{"quiz_id":3,"choiceSeq":4}]}}
{"token":"eyJ0eXAiOiJKV1QiLCJhbGciOiJIUzI1NiJ9.eyJ1aWQiOjIwNzE2LCJleHBpcmVkIjoxNjAyMzE0NzY1fQ.6XBkEMFfTcH7JLdMhiTYk_KVo6jDu6gmfgECRIF2OVs","data":{"method":"PUT","data":[{"quiz_id":1,"choiceSeq":4},{"quiz_id":2,"choiceSeq":3},{"quiz_id":3,"choiceSeq":4}]}}
{"token":"eyJ0eXAiOiJKV1QiLCJhbGciOiJIUzI1NiJ9.eyJ1aWQiOjExNDcsImV4cGlyZWQiOjE2MDIzMTUxNDd9.m3Ze4kap6PRTZtc7dJNATkRwk0FsVq45wracM63Igvs","data":{"method":"PUT","data":[{"quiz_id":1,"choiceSeq":4},{"quiz_id":2,"choiceSeq":4},{"quiz_id":3,"choiceSeq":1}]}}
{"token":"eyJ0eXAiOiJKV1QiLCJhbGciOiJIUzI1NiJ9.eyJ1aWQiOjQ0NDU5LCJleHBpcmVkIjoxNjAyMzE1NzY5fQ.FMCNPc8IS87-RGLX7Px8_abl2SDT9UdKBC76_z3FHaY","data":{"method":"PUT","data":[{"quiz_id":1,"choiceSeq":4},{"quiz_id":2,"choiceSeq":3},{"quiz_id":3,"choiceSeq":4}]}}
{"token":"eyJ0eXAiOiJKV1QiLCJhbGciOiJIUzI1NiJ9.eyJ1aWQiOjExOTYxLCJleHBpcmVkIjoxNjAyMzE1ODI3fQ.oSbJqhbXNJUfFBEllUBK784QtgMqG5GpmqmeZb9lAyA","data":{"method":"PUT","data":[{"quiz_id":1,"choiceSeq":4},{"quiz_id":2,"choiceSeq":2},{"quiz_id":3,"choiceSeq":4}]}}
{"token":"eyJ0eXAiOiJKV1QiLCJhbGciOiJIUzI1NiJ9.eyJ1aWQiOjQ0NDc0LCJleHBpcmVkIjoxNjAyMzE2MTU0fQ.6k0JT7gfVSgmvb8ZQfqGBVUjWdo7MDg6_C5k-EtQmYo","data":{"method":"PUT","data":[{"quiz_id":1,"choiceSeq":4},{"quiz_id":2,"choiceSeq":3},{"quiz_id":3,"choiceSeq":3}]}}
{"token":"eyJ0eXAiOiJKV1QiLCJhbGciOiJIUzI1NiJ9.eyJ1aWQiOjQ2MjUyLCJleHBpcmVkIjoxNjAyMzE2MzA3fQ.VZ7s0RrsQpY2SiUhWMHlUkMLYbUvEe-aYrZUQT6aYR0","data":{"method":"PUT","data":[{"quiz_id":1,"choiceSeq":4},{"quiz_id":2,"choiceSeq":2},{"quiz_id":3,"choiceSeq":3}]}}
{"token":"eyJ0eXAiOiJKV1QiLCJhbGciOiJIUzI1NiJ9.eyJ1aWQiOjQ0MjMzLCJleHBpcmVkIjoxNjAyMzE2NDEzfQ.GGAbFBvvL2MzI7ok5N024LydvOIkpFoftkv4DWDA53c","data":{"method":"PUT","data":[{"quiz_id":1,"choiceSeq":4},{"quiz_id":2,"choiceSeq":1},{"quiz_id":3,"choiceSeq":3}]}}
{"token":"eyJ0eXAiOiJKV1QiLCJhbGciOiJIUzI1NiJ9.eyJ1aWQiOjIxNTgsImV4cGlyZWQiOjE2MDIzMTY1ODF9.kU4zgA3ZVJOksZitfWAsNTZODOMfW0mZnxRecU4VNvo","data":{"method":"PUT","data":[{"quiz_id":1,"choiceSeq":4},{"quiz_id":2,"choiceSeq":2},{"quiz_id":3,"choiceSeq":3}]}}
{"token":"eyJ0eXAiOiJKV1QiLCJhbGciOiJIUzI1NiJ9.eyJ1aWQiOjQ2Mzc3LCJleHBpcmVkIjoxNjAyMzE2OTY3fQ.KqCO9zA95tRZmB1yxv_Xk5GkPM-wTbuyj12ugXvw3_U","data":{"method":"PUT","data":[{"quiz_id":1,"choiceSeq":4},{"quiz_id":2,"choiceSeq":3},{"quiz_id":3,"choiceSeq":4}]}}
{"token":"eyJ0eXAiOiJKV1QiLCJhbGciOiJIUzI1NiJ9.eyJ1aWQiOjIwNjQsImV4cGlyZWQiOjE2MDIzMTcyNTJ9.2XorNLxtfwlpW2or4JFWvxMNGMrTSaGtWxx_9Rw_rdU","data":{"method":"PUT","data":[{"quiz_id":1,"choiceSeq":4},{"quiz_id":2,"choiceSeq":3},{"quiz_id":3,"choiceSeq":3}]}}
{"token":"eyJ0eXAiOiJKV1QiLCJhbGciOiJIUzI1NiJ9.eyJ1aWQiOjg3NCwiZXhwaXJlZCI6MTYwMjMxNzUyOX0.cKQH-FBUNAbmhqrPZaoEyC25xzE5vyyRkLIBHH8GJ4k","data":{"method":"PUT","data":[{"quiz_id":1,"choiceSeq":4},{"quiz_id":2,"choiceSeq":3},{"quiz_id":3,"choiceSeq":4}]}}
{"token":"eyJ0eXAiOiJKV1QiLCJhbGciOiJIUzI1NiJ9.eyJ1aWQiOjIwNjkwLCJleHBpcmVkIjoxNjAyMzE3NjU4fQ.b0I3d-3xbBHwxqODa_cNS5NHV3kYfHWyiTVQvb-Clj4","data":{"method":"PUT","data":[{"quiz_id":1,"choiceSeq":4},{"quiz_id":2,"choiceSeq":3},{"quiz_id":3,"choiceSeq":4}]}}
{"token":"eyJ0eXAiOiJKV1QiLCJhbGciOiJIUzI1NiJ9.eyJ1aWQiOjQ2NTk4LCJleHBpcmVkIjoxNjAyMzE3NjA3fQ.8xbqTURrWAUZ5ZpV6wDYiLVBnJYzNuDzU_-m1OpxeME","data":{"method":"PUT","data":[{"quiz_id":1,"choiceSeq":4},{"quiz_id":2,"choiceSeq":3},{"quiz_id":3,"choiceSeq":4}]}}
{"token":"eyJ0eXAiOiJKV1QiLCJhbGciOiJIUzI1NiJ9.eyJ1aWQiOjQwMzc0LCJleHBpcmVkIjoxNjAyMzE5MDU4fQ.zoDTXkO7iXTQoKUuBsucWckM6ZLZ2LzknRn71YtSV6g","data":{"method":"PUT","data":[{"quiz_id":1,"choiceSeq":4},{"quiz_id":2,"choiceSeq":3},{"quiz_id":3,"choiceSeq":4}]}}
{"token":"eyJ0eXAiOiJKV1QiLCJhbGciOiJIUzI1NiJ9.eyJ1aWQiOjQ3MzAxLCJleHBpcmVkIjoxNjAyMzE4OTA1fQ.vZQbINeVV12v44hGzgQJjdyvUlqydQ6hMvUUi7pgaCE","data":{"method":"PUT","data":[{"quiz_id":1,"choiceSeq":4},{"quiz_id":2,"choiceSeq":3},{"quiz_id":3,"choiceSeq":4}]}}
{"token":"eyJ0eXAiOiJKV1QiLCJhbGciOiJIUzI1NiJ9.eyJ1aWQiOjQ0MzYzLCJleHBpcmVkIjoxNjAyMzE4ODI5fQ.8zJ55sIOtkT4JxAPhb_QkkWlXJ86vLRMA83TsdOr7ok","data":{"method":"PUT","data":[{"quiz_id":1,"choiceSeq":4},{"quiz_id":2,"choiceSeq":3},{"quiz_id":3,"choiceSeq":4}]}}
{"token":"eyJ0eXAiOiJKV1QiLCJhbGciOiJIUzI1NiJ9.eyJ1aWQiOjQ3MTExLCJleHBpcmVkIjoxNjAyMzE4OTc4fQ._V2JpkG8fDd49E58-c1D8qEmU0koqyuLMf4dOWevyzk","data":{"method":"PUT","data":[{"quiz_id":1,"choiceSeq":4},{"quiz_id":2,"choiceSeq":3},{"quiz_id":3,"choiceSeq":4}]}}
{"token":"eyJ0eXAiOiJKV1QiLCJhbGciOiJIUzI1NiJ9.eyJ1aWQiOjIyMTgsImV4cGlyZWQiOjE2MDIzMTkxMjh9.TQMHkgGPHgS3rNPguLvZKowXEbUrk9trZRNyNHINAGY","data":{"method":"PUT","data":[{"quiz_id":1,"choiceSeq":4},{"quiz_id":2,"choiceSeq":3},{"quiz_id":3,"choiceSeq":4}]}}
{"token":"eyJ0eXAiOiJKV1QiLCJhbGciOiJIUzI1NiJ9.eyJ1aWQiOjQ3MjA2LCJleHBpcmVkIjoxNjAyMzE5MTc0fQ.xRu7djRAz53MMEAD0pvw25AE-YJhvm6yp7eHEdij6KA","data":{"method":"PUT","data":[{"quiz_id":1,"choiceSeq":4},{"quiz_id":2,"choiceSeq":1},{"quiz_id":3,"choiceSeq":4}]}}
{"token":"eyJ0eXAiOiJKV1QiLCJhbGciOiJIUzI1NiJ9.eyJ1aWQiOjQyMzA4LCJleHBpcmVkIjoxNjAyMzE5NTMxfQ.gxobyZkgbaIA0wNeHFUl3zJhXopWAgeyiHFjGgW6Up8","data":{"method":"PUT","data":[{"quiz_id":1,"choiceSeq":4},{"quiz_id":2,"choiceSeq":3},{"quiz_id":3,"choiceSeq":4}]}}
{"token":"eyJ0eXAiOiJKV1QiLCJhbGciOiJIUzI1NiJ9.eyJ1aWQiOjQ2NzQ1LCJleHBpcmVkIjoxNjAyMzE5NTEyfQ.kSpAopFynDlqjNTQgInyBjWUTYJPmay63YYAVLSBnrs","data":{"method":"PUT","data":[{"quiz_id":1,"choiceSeq":4},{"quiz_id":2,"choiceSeq":2},{"quiz_id":3,"choiceSeq":4}]}}
{"token":"eyJ0eXAiOiJKV1QiLCJhbGciOiJIUzI1NiJ9.eyJ1aWQiOjQ2NzQ0LCJleHBpcmVkIjoxNjAyMzE5ODUyfQ.NGiDL2W9D2mkHuONJG-qOOGiu-tYH6rti0jiGGDTTXQ","data":{"method":"PUT","data":[{"quiz_id":1,"choiceSeq":4},{"quiz_id":2,"choiceSeq":3},{"quiz_id":3,"choiceSeq":4}]}}
{"token":"eyJ0eXAiOiJKV1QiLCJhbGciOiJIUzI1NiJ9.eyJ1aWQiOjQ4NywiZXhwaXJlZCI6MTYwMjMyMDA2OH0.9IyOQ6UTb2-vG2EznmFafo9vGsE-cbMEcTEQMhYIB54","data":{"method":"PUT","data":[{"quiz_id":1,"choiceSeq":4},{"quiz_id":2,"choiceSeq":3},{"quiz_id":3,"choiceSeq":4}]}}
{"token":"eyJ0eXAiOiJKV1QiLCJhbGciOiJIUzI1NiJ9.eyJ1aWQiOjQzNTUzLCJleHBpcmVkIjoxNjAyMzIwMzc0fQ.FJ4KhVFUg7u5FKZSQZbUJ3Sc2NgkoUXz8B3nSPjqrBU","data":{"method":"PUT","data":[{"quiz_id":1,"choiceSeq":4},{"quiz_id":2,"choiceSeq":3},{"quiz_id":3,"choiceSeq":4}]}}
{"token":"eyJ0eXAiOiJKV1QiLCJhbGciOiJIUzI1NiJ9.eyJ1aWQiOjQ2NzQzLCJleHBpcmVkIjoxNjAyMzIwMzgzfQ.4_tJaDDT6Vfg4q5H99UoQDJRJWA90yhBs1xrZnTlcT0","data":{"method":"PUT","data":[{"quiz_id":1,"choiceSeq":4},{"quiz_id":2,"choiceSeq":3},{"quiz_id":3,"choiceSeq":4}]}}
{"token":"eyJ0eXAiOiJKV1QiLCJhbGciOiJIUzI1NiJ9.eyJ1aWQiOjQ0MjMyLCJleHBpcmVkIjoxNjAyMzIwNDAxfQ.Cn5PxOD1iOL3RVX2L0-7L45u-oO-q7VVOLsJ9QaHcuo","data":{"method":"PUT","data":[{"quiz_id":1,"choiceSeq":4},{"quiz_id":2,"choiceSeq":2},{"quiz_id":3,"choiceSeq":3}]}}
{"token":"eyJ0eXAiOiJKV1QiLCJhbGciOiJIUzI1NiJ9.eyJ1aWQiOjQ2NjIxLCJleHBpcmVkIjoxNjAyMzIwNDg3fQ.fJr7T7XA7vaIJ4kIvQIBRWLMdMlr9imJ38eCVjL55Hk","data":{"method":"PUT","data":[{"quiz_id":1,"choiceSeq":1},{"quiz_id":2,"choiceSeq":1},{"quiz_id":3,"choiceSeq":4}]}}
{"token":"eyJ0eXAiOiJKV1QiLCJhbGciOiJIUzI1NiJ9.eyJ1aWQiOjE0ODEsImV4cGlyZWQiOjE2MDIzMjA1OTV9.gCoDj7BPM647qC6V6rX-p2jLLCPYsrbfw6J2QHXyR4k","data":{"method":"PUT","data":[{"quiz_id":1,"choiceSeq":4},{"quiz_id":2,"choiceSeq":3},{"quiz_id":3,"choiceSeq":4}]}}
{"token":"eyJ0eXAiOiJKV1QiLCJhbGciOiJIUzI1NiJ9.eyJ1aWQiOjQ3MjQ4LCJleHBpcmVkIjoxNjAyMzIwNjQ4fQ.hEDg-bupM0-Xgvy6tZYtFGde9jnUNwwm8LPpQN1BqqA","data":{"method":"PUT","data":[{"quiz_id":1,"choiceSeq":4},{"quiz_id":2,"choiceSeq":3},{"quiz_id":3,"choiceSeq":4}]}}
{"token":"eyJ0eXAiOiJKV1QiLCJhbGciOiJIUzI1NiJ9.eyJpZCI6NDQ1MDIsInVpZCI6NDQ1MDIsImV4cGlyZWQiOjE2MDIzMjA3MTl9.FM-YSJT-IOkNFRJha39ZBhesqQzEn6_sRygRLMgAAko","data":{"method":"PUT","data":[{"quiz_id":1,"choiceSeq":4},{"quiz_id":2,"choiceSeq":3},{"quiz_id":3,"choiceSeq":4}]}}
{"token":"eyJ0eXAiOiJKV1QiLCJhbGciOiJIUzI1NiJ9.eyJ1aWQiOjk5ODAsImV4cGlyZWQiOjE2MDIzMjA2MDF9.yVIpSUOvUAxA6dnTVQUlymMwHEokFrPHfl7fFVWNKyI","data":{"method":"PUT","data":[{"quiz_id":1,"choiceSeq":4},{"quiz_id":2,"choiceSeq":3},{"quiz_id":3,"choiceSeq":4}]}}
{"token":"eyJ0eXAiOiJKV1QiLCJhbGciOiJIUzI1NiJ9.eyJ1aWQiOjIyMzEsImV4cGlyZWQiOjE2MDIzMjA4NzJ9.aI_x2TOsgwPtXBmhPjWxy2D6j7AksMwgRFUbyKQojS0","data":{"method":"PUT","data":[{"quiz_id":1,"choiceSeq":4},{"quiz_id":2,"choiceSeq":3},{"quiz_id":3,"choiceSeq":4}]}}
{"token":"eyJ0eXAiOiJKV1QiLCJhbGciOiJIUzI1NiJ9.eyJ1aWQiOjQ1ODQzLCJleHBpcmVkIjoxNjAyMzIxMDY5fQ.ccqjiVDpZ98zNbqtJjiIh2GAGNLCzOn_QM_K1dcsppM","data":{"method":"PUT","data":[{"quiz_id":1,"choiceSeq":2},{"quiz_id":2,"choiceSeq":3},{"quiz_id":3,"choiceSeq":4}]}}
{"token":"eyJ0eXAiOiJKV1QiLCJhbGciOiJIUzI1NiJ9.eyJ1aWQiOjExMDY0LCJleHBpcmVkIjoxNjAyMzIxNjA0fQ.qByvCL05bCXf9TV-Mi04viFuSj8vlFr9uZ9Jv395kNQ","data":{"method":"PUT","data":[{"quiz_id":1,"choiceSeq":4},{"quiz_id":2,"choiceSeq":2},{"quiz_id":3,"choiceSeq":4}]}}
{"token":"eyJ0eXAiOiJKV1QiLCJhbGciOiJIUzI1NiJ9.eyJ1aWQiOjkyNjEsImV4cGlyZWQiOjE2MDIzMjE1NjV9.oVqsRqSyu5qnaZYEE1HQqxgBRUYsn2BGJ-2oCcR3RNE","data":{"method":"PUT","data":[{"quiz_id":1,"choiceSeq":4},{"quiz_id":2,"choiceSeq":4},{"quiz_id":3,"choiceSeq":4}]}}
{"token":"eyJ0eXAiOiJKV1QiLCJhbGciOiJIUzI1NiJ9.eyJ1aWQiOjc5NCwiZXhwaXJlZCI6MTYwMjMyMTY2N30.u8tGP6KqkUagJfAgb_gImwv8CJtWrCvylC1xAI5zsnE","data":{"method":"PUT","data":[{"quiz_id":1,"choiceSeq":2},{"quiz_id":2,"choiceSeq":3},{"quiz_id":3,"choiceSeq":4}]}}
{"token":"eyJ0eXAiOiJKV1QiLCJhbGciOiJIUzI1NiJ9.eyJ1aWQiOjU5OSwiZXhwaXJlZCI6MTYwMjMyMTc5Nn0.lKE6CHJCUHsvDBTPG_S1wLaMveO6sBGFzu91LaEDopc","data":{"method":"PUT","data":[{"quiz_id":1,"choiceSeq":4},{"quiz_id":2,"choiceSeq":3},{"quiz_id":3,"choiceSeq":4}]}}
{"token":"eyJ0eXAiOiJKV1QiLCJhbGciOiJIUzI1NiJ9.eyJ1aWQiOjEyNjU2LCJleHBpcmVkIjoxNjAyMzIwNjAzfQ._4r8bRwxKizW-zRheRLBdnveDYLJye0hMkMKniTRiwM","data":{"method":"PUT","data":[{"quiz_id":1,"choiceSeq":4},{"quiz_id":2,"choiceSeq":3},{"quiz_id":3,"choiceSeq":4}]}}
{"token":"eyJ0eXAiOiJKV1QiLCJhbGciOiJIUzI1NiJ9.eyJ1aWQiOjIwODcsImV4cGlyZWQiOjE2MDIzMjE4ODJ9.vTzecULmKBlHY_T3uijFk4cQg5-WS41jwasLM1UNLP4","data":{"method":"PUT","data":[{"quiz_id":1,"choiceSeq":4},{"quiz_id":2,"choiceSeq":3},{"quiz_id":3,"choiceSeq":4}]}}
{"token":"eyJ0eXAiOiJKV1QiLCJhbGciOiJIUzI1NiJ9.eyJ1aWQiOjIwOTUsImV4cGlyZWQiOjE2MDIzMjE5ODB9.MU9su7mVdCOYlt7XyNQpi-t7zxJ1jxLvEf323BQO6tU","data":{"method":"PUT","data":[{"quiz_id":1,"choiceSeq":4},{"quiz_id":2,"choiceSeq":3},{"quiz_id":3,"choiceSeq":4}]}}
{"token":"eyJ0eXAiOiJKV1QiLCJhbGciOiJIUzI1NiJ9.eyJ1aWQiOjIwOTQsImV4cGlyZWQiOjE2MDIzMjE5MTJ9.mw7PA0_cZMcweRT2jpRklV6KvgQTM7FFzbQRY2irkTg","data":{"method":"PUT","data":[{"quiz_id":1,"choiceSeq":4},{"quiz_id":2,"choiceSeq":3},{"quiz_id":3,"choiceSeq":4}]}}
{"token":"eyJ0eXAiOiJKV1QiLCJhbGciOiJIUzI1NiJ9.eyJ1aWQiOjQ1Njk1LCJleHBpcmVkIjoxNjAyMzIyMDc3fQ.GMhWiQ3MWew5r--O2Tcw5qRMBIllr61tvsjE7IKhLnw","data":{"method":"PUT","data":[{"quiz_id":1,"choiceSeq":4},{"quiz_id":2,"choiceSeq":3},{"quiz_id":3,"choiceSeq":4}]}}
{"token":"eyJ0eXAiOiJKV1QiLCJhbGciOiJIUzI1NiJ9.eyJpZCI6NDU2OTQsInVpZCI6NDU2OTQsImV4cGlyZWQiOjE2MDIzMjIwNjl9.xL8y5KlGe42YxhaSoSfxT5U1HQWtKrhD05TuViJwkqw","data":{"method":"PUT","data":[{"quiz_id":1,"choiceSeq":1},{"quiz_id":2,"choiceSeq":3},{"quiz_id":3,"choiceSeq":4}]}}
{"token":"eyJ0eXAiOiJKV1QiLCJhbGciOiJIUzI1NiJ9.eyJ1aWQiOjIyMzgsImV4cGlyZWQiOjE2MDIzMjIzNzR9.Wy3IpjCDSLMKDnpMfh6NLMXDNb0JfePyCwlOQNX9pb0","data":{"method":"PUT","data":[{"quiz_id":1,"choiceSeq":1},{"quiz_id":2,"choiceSeq":3},{"quiz_id":3,"choiceSeq":4}]}}
{"token":"eyJ0eXAiOiJKV1QiLCJhbGciOiJIUzI1NiJ9.eyJpZCI6MjQ3OCwidWlkIjoyNDc4LCJleHBpcmVkIjoxNjAyMzIxOTQ4fQ.M4ET9djY1E0ZdwxdNG1Qpwvz_fIKabw-T_gjSRHKFxM","data":{"method":"PUT","data":[{"quiz_id":1,"choiceSeq":4},{"quiz_id":2,"choiceSeq":3},{"quiz_id":3,"choiceSeq":4}]}}
{"token":"eyJ0eXAiOiJKV1QiLCJhbGciOiJIUzI1NiJ9.eyJpZCI6NDU3NDMsInVpZCI6NDU3NDMsImV4cGlyZWQiOjE2MDIzMjI2MzF9.4lhZLw4U2X30nNO5JUyEtz8Guz4nqQLS9216k8OLLTM","data":{"method":"PUT","data":[{"quiz_id":1,"choiceSeq":4},{"quiz_id":2,"choiceSeq":3},{"quiz_id":3,"choiceSeq":4}]}}
{"token":"eyJ0eXAiOiJKV1QiLCJhbGciOiJIUzI1NiJ9.eyJ1aWQiOjExODA1LCJleHBpcmVkIjoxNjAyMzIyNzEwfQ.kSkiOLveSSrmDDJ568wDeCjTTMpMQlJI3aY0zEYARec","data":{"method":"PUT","data":[{"quiz_id":1,"choiceSeq":4},{"quiz_id":2,"choiceSeq":4},{"quiz_id":3,"choiceSeq":4}]}}
{"token":"eyJ0eXAiOiJKV1QiLCJhbGciOiJIUzI1NiJ9.eyJpZCI6NDA2MDcsInVpZCI6NDA2MDcsImV4cGlyZWQiOjE2MDIzMjI4OTJ9.U-l1_0G_f71lfQJ27Y8AeJSKcy3U58GtBKNKQOlmY9I","data":{"method":"PUT","data":[{"quiz_id":1,"choiceSeq":4},{"quiz_id":2,"choiceSeq":1},{"quiz_id":3,"choiceSeq":4}]}}
{"token":"eyJ0eXAiOiJKV1QiLCJhbGciOiJIUzI1NiJ9.eyJpZCI6NDM5MDMsInVpZCI6NDM5MDMsImV4cGlyZWQiOjE2MDIzMjMwNzR9.hF-oDCKH4qzsAIQokZZGFymmMx7HlXAzTvCCY8tKOM4","data":{"method":"PUT","data":[{"quiz_id":1,"choiceSeq":1},{"quiz_id":2,"choiceSeq":3},{"quiz_id":3,"choiceSeq":4}]}}
{"token":"eyJ0eXAiOiJKV1QiLCJhbGciOiJIUzI1NiJ9.eyJpZCI6NDU2NjAsInVpZCI6NDU2NjAsImV4cGlyZWQiOjE2MDIzMjI0Mjd9.Lux_xw81NUOpfdcGvck3dA-OIJW5zUkx7rRofbkm0k4","data":{"method":"PUT","data":[{"quiz_id":1,"choiceSeq":4},{"quiz_id":2,"choiceSeq":2},{"quiz_id":3,"choiceSeq":3}]}}
{"token":"eyJ0eXAiOiJKV1QiLCJhbGciOiJIUzI1NiJ9.eyJ1aWQiOjIzNjUsImV4cGlyZWQiOjE2MDIzMjMyMjZ9.yqEXqpl7QG2RLTKSbsgVKrcNkQf2M5BksC5uYWuVcFE","data":{"method":"PUT","data":[{"quiz_id":1,"choiceSeq":4},{"quiz_id":2,"choiceSeq":3},{"quiz_id":3,"choiceSeq":4}]}}
{"token":"eyJ0eXAiOiJKV1QiLCJhbGciOiJIUzI1NiJ9.eyJpZCI6NDQ0NjMsInVpZCI6NDQ0NjMsImV4cGlyZWQiOjE2MDIzMjMwMTV9.8sJjmzxGeZ1rGVHnSO_0Iy5frvGMY4MQ6FIzf723AFE","data":{"method":"PUT","data":[{"quiz_id":1,"choiceSeq":4},{"quiz_id":2,"choiceSeq":3},{"quiz_id":3,"choiceSeq":4}]}}
{"token":"eyJ0eXAiOiJKV1QiLCJhbGciOiJIUzI1NiJ9.eyJ1aWQiOjQyOTQ2LCJleHBpcmVkIjoxNjAyMzIzNDc4fQ.OeyqkCnEImLy61KD2cqPsAE8cwv_6OgfV893f3qxYHg","data":{"method":"PUT","data":[{"quiz_id":1,"choiceSeq":1},{"quiz_id":2,"choiceSeq":3},{"quiz_id":3,"choiceSeq":4}]}}
{"token":"eyJ0eXAiOiJKV1QiLCJhbGciOiJIUzI1NiJ9.eyJpZCI6NDI3MjYsInVpZCI6NDI3MjYsImV4cGlyZWQiOjE2MDIzMjM1NTJ9.t7ooIb-PO9c01NNHoB2PWCL4IKrpH_bugSHWRw_rnRE","data":{"method":"PUT","data":[{"quiz_id":1,"choiceSeq":4},{"quiz_id":2,"choiceSeq":4},{"quiz_id":3,"choiceSeq":3}]}}
{"token":"eyJ0eXAiOiJKV1QiLCJhbGciOiJIUzI1NiJ9.eyJ1aWQiOjQzOTA0LCJleHBpcmVkIjoxNjAyMzIzNjg0fQ.P-k88667stl5DdEzLypTtcVCmkVj4Myp8khNDKuEBLk","data":{"method":"PUT","data":[{"quiz_id":1,"choiceSeq":4},{"quiz_id":2,"choiceSeq":1},{"quiz_id":3,"choiceSeq":3}]}}
{"token":"eyJ0eXAiOiJKV1QiLCJhbGciOiJIUzI1NiJ9.eyJ1aWQiOjEwMzcsImV4cGlyZWQiOjE2MDIzMjQ2ODJ9.iRBc3HS3nlQcHQH4s-tGp502jwdRIWwHxOyy8vXFuY0","data":{"method":"PUT","data":[{"quiz_id":1,"choiceSeq":4},{"quiz_id":2,"choiceSeq":3},{"quiz_id":3,"choiceSeq":4}]}}
{"token":"eyJ0eXAiOiJKV1QiLCJhbGciOiJIUzI1NiJ9.eyJ1aWQiOjQ0MjkyLCJleHBpcmVkIjoxNjAyMzI0ODM0fQ.jrkvU5KMjD1XArIy4CFYaX4Xjia3TwIwRjpRvpzKle4","data":{"method":"PUT","data":[{"quiz_id":1,"choiceSeq":4},{"quiz_id":2,"choiceSeq":3},{"quiz_id":3,"choiceSeq":3}]}}
{"token":"eyJ0eXAiOiJKV1QiLCJhbGciOiJIUzI1NiJ9.eyJ1aWQiOjY3NSwiZXhwaXJlZCI6MTYwMjMyNDgzMn0.mJ3pZ8u5ROxABlGdO3cQ28zOwtcYCE7NACdK8aonO9s","data":{"method":"PUT","data":[{"quiz_id":1,"choiceSeq":4},{"quiz_id":2,"choiceSeq":3},{"quiz_id":3,"choiceSeq":3}]}}
{"token":"eyJ0eXAiOiJKV1QiLCJhbGciOiJIUzI1NiJ9.eyJ1aWQiOjQxMTIzLCJleHBpcmVkIjoxNjAyMzI2MzY0fQ.6Emoh_YZoJkufaS6BRILY_WRp64XKvh3SAVhwzCHRQI","data":{"method":"PUT","data":[{"quiz_id":1,"choiceSeq":4},{"quiz_id":2,"choiceSeq":3},{"quiz_id":3,"choiceSeq":4}]}}
{"token":"eyJ0eXAiOiJKV1QiLCJhbGciOiJIUzI1NiJ9.eyJpZCI6NDI2MjUsInVpZCI6NDI2MjUsImV4cGlyZWQiOjE2MDIzMjczODF9.SaOsrTm0oQ6yE7cRtnZ26VFM7kjXfB3BwT_tq3RyVZk","data":{"method":"PUT","data":[{"quiz_id":1,"choiceSeq":4},{"quiz_id":2,"choiceSeq":3},{"quiz_id":3,"choiceSeq":4}]}}
{"token":"eyJ0eXAiOiJKV1QiLCJhbGciOiJIUzI1NiJ9.eyJ1aWQiOjE3MDMsImV4cGlyZWQiOjE2MDIzMjkwMjB9.lCaCOsv14gux2UjbN9lGGvIQgb_6nkVHtkes_ypzQ5Y","data":{"method":"PUT","data":[{"quiz_id":1,"choiceSeq":4},{"quiz_id":2,"choiceSeq":3},{"quiz_id":3,"choiceSeq":4}]}}
{"token":"eyJ0eXAiOiJKV1QiLCJhbGciOiJIUzI1NiJ9.eyJpZCI6NDI2MTYsInVpZCI6NDI2MTYsImV4cGlyZWQiOjE2MDIzMjkzNDl9.lfqVFIVbDuAWJREQ6FULOq383ZnLQD4XMav2PDORb-0","data":{"method":"PUT","data":[{"quiz_id":1,"choiceSeq":4},{"quiz_id":2,"choiceSeq":3},{"quiz_id":3,"choiceSeq":4}]}}
{"token":"eyJ0eXAiOiJKV1QiLCJhbGciOiJIUzI1NiJ9.eyJpZCI6NDU5OTIsInVpZCI6NDU5OTIsImV4cGlyZWQiOjE2MDIzMjg5MzJ9.U6nrtP22c0rQ90fs5HZ45QSUPY3jHftw4EJTnUJAZfU","data":{"method":"PUT","data":[{"quiz_id":1,"choiceSeq":4},{"quiz_id":2,"choiceSeq":3},{"quiz_id":3,"choiceSeq":2}]}}
{"token":"eyJ0eXAiOiJKV1QiLCJhbGciOiJIUzI1NiJ9.eyJpZCI6NDI0NzcsInVpZCI6NDI0NzcsImV4cGlyZWQiOjE2MDIzMjk4Mjl9.nTKBQRfCGr1D-vMzyHw6rT7Qmk-spl0TTEsUDV86fs0","data":{"method":"PUT","data":[{"quiz_id":1,"choiceSeq":4},{"quiz_id":2,"choiceSeq":3},{"quiz_id":3,"choiceSeq":4}]}}
{"token":"eyJ0eXAiOiJKV1QiLCJhbGciOiJIUzI1NiJ9.eyJ1aWQiOjU2NSwiZXhwaXJlZCI6MTYwMjMzMDIzOH0.d6W0siUAXuQqM9A4cspAsO7RN6lGLZUAO0VzbDHMb9o","data":{"method":"PUT","data":[{"quiz_id":1,"choiceSeq":4},{"quiz_id":2,"choiceSeq":2},{"quiz_id":3,"choiceSeq":4}]}}
{"token":"eyJ0eXAiOiJKV1QiLCJhbGciOiJIUzI1NiJ9.eyJpZCI6NTA5MDMsInVpZCI6NTA5MDMsImV4cGlyZWQiOjE2MDIzMzA0ODd9.pzEpC0N2UiahqgpnMn3OmkpHPgZmhUK_xW6aOe8mrsg","data":{"method":"PUT","data":[{"quiz_id":1,"choiceSeq":4},{"quiz_id":2,"choiceSeq":3},{"quiz_id":3,"choiceSeq":4}]}}
{"token":"eyJ0eXAiOiJKV1QiLCJhbGciOiJIUzI1NiJ9.eyJ1aWQiOjQwNzgyLCJleHBpcmVkIjoxNjAyMzMxMDE3fQ.wzBGSsOYyZU7sBU_CweYLwtPR4n4P5ophNJ44kEqmvI","data":{"method":"PUT","data":[{"quiz_id":1,"choiceSeq":4},{"quiz_id":2,"choiceSeq":3},{"quiz_id":3,"choiceSeq":4}]}}
{"token":"eyJ0eXAiOiJKV1QiLCJhbGciOiJIUzI1NiJ9.eyJpZCI6NDM0NjMsInVpZCI6NDM0NjMsImV4cGlyZWQiOjE2MDIzMzEyOTl9.yea-YPTKDLzTDNpM26Ef_T8WXvYNNSga7lAIqqJTZ1g","data":{"method":"PUT","data":[{"quiz_id":1,"choiceSeq":4},{"quiz_id":2,"choiceSeq":3},{"quiz_id":3,"choiceSeq":4}]}}
{"token":"eyJ0eXAiOiJKV1QiLCJhbGciOiJIUzI1NiJ9.eyJ1aWQiOjQzNTMyLCJleHBpcmVkIjoxNjAyMzMyOTQzfQ.vUPo9KHMZnZlE8Kq4EzYLDZHom3046ya38-XdfB-eFg","data":{"method":"PUT","data":[{"quiz_id":1,"choiceSeq":4},{"quiz_id":2,"choiceSeq":3},{"quiz_id":3,"choiceSeq":3}]}}
{"token":"eyJ0eXAiOiJKV1QiLCJhbGciOiJIUzI1NiJ9.eyJpZCI6MTE0MCwidWlkIjoxMTQwLCJleHBpcmVkIjoxNjAyMzMyOTE2fQ.oqIRyWvkpElmUFZYw0Owm5QZAewMssdmB6u4dJuIe08","data":{"method":"PUT","data":[{"quiz_id":1,"choiceSeq":4},{"quiz_id":2,"choiceSeq":3},{"quiz_id":3,"choiceSeq":3}]}}
{"token":"eyJ0eXAiOiJKV1QiLCJhbGciOiJIUzI1NiJ9.eyJ1aWQiOjY2OSwiZXhwaXJlZCI6MTYwMjMyOTk1N30.DPqr7w24SeeUhjQZ1vnkRQ9jJACiO4iKvoO1Hi4WEQ4","data":{"method":"PUT","data":[{"quiz_id":1,"choiceSeq":4},{"quiz_id":2,"choiceSeq":3},{"quiz_id":3,"choiceSeq":3}]}}
{"token":"eyJ0eXAiOiJKV1QiLCJhbGciOiJIUzI1NiJ9.eyJ1aWQiOjk5NzMsImV4cGlyZWQiOjE2MDIzMzMzNjJ9.pOcdXfhi9CA5pVsxTjVHH6FLhSryMSWNpCIGTjphSL8","data":{"method":"PUT","data":[{"quiz_id":1,"choiceSeq":4},{"quiz_id":2,"choiceSeq":3},{"quiz_id":3,"choiceSeq":4}]}}
{"token":"eyJ0eXAiOiJKV1QiLCJhbGciOiJIUzI1NiJ9.eyJpZCI6NDU3MjAsInVpZCI6NDU3MjAsImV4cGlyZWQiOjE2MDIzMzM1OTV9.12R5BNwIWEsRYHOsA0T_uMeBVKCHzod-jaTG1gAldhk","data":{"method":"PUT","data":[{"quiz_id":1,"choiceSeq":4},{"quiz_id":2,"choiceSeq":1},{"quiz_id":3,"choiceSeq":1}]}}
{"token":"eyJ0eXAiOiJKV1QiLCJhbGciOiJIUzI1NiJ9.eyJpZCI6NDA3MzcsInVpZCI6NDA3MzcsImV4cGlyZWQiOjE2MDIzMzQ3MDJ9.teRerqdY60HxJ4ymPSWnTCtp9AyCXQKKRb2mDTH1ymQ","data":{"method":"PUT","data":[{"quiz_id":1,"choiceSeq":4},{"quiz_id":2,"choiceSeq":3},{"quiz_id":3,"choiceSeq":4}]}}
{"token":"eyJ0eXAiOiJKV1QiLCJhbGciOiJIUzI1NiJ9.eyJ1aWQiOjI0NjEsImV4cGlyZWQiOjE2MDIzMzUwMDd9.oV3PBJbgWMd2kMAUCsRiofF0jNMR67pPb03A2Q9NCgo","data":{"method":"PUT","data":[{"quiz_id":1,"choiceSeq":4},{"quiz_id":2,"choiceSeq":4},{"quiz_id":3,"choiceSeq":4}]}}
{"token":"eyJ0eXAiOiJKV1QiLCJhbGciOiJIUzI1NiJ9.eyJ1aWQiOjQzMDk0LCJleHBpcmVkIjoxNjAyMzM0OTUxfQ.bgPPiX6plAaVsJ7OuDhevu7p8Y9rF_C4mNaD4JVSE54","data":{"method":"PUT","data":[{"quiz_id":1,"choiceSeq":4},{"quiz_id":2,"choiceSeq":3},{"quiz_id":3,"choiceSeq":4}]}}
{"token":"eyJ0eXAiOiJKV1QiLCJhbGciOiJIUzI1NiJ9.eyJpZCI6NTA3NjAsInVpZCI6NTA3NjAsImV4cGlyZWQiOjE2MDIzMzUxNTV9.bl6mTalAKzVu-mZioHYDGIvMG5ND59ysa9Xr1LqOQU8","data":{"method":"PUT","data":[{"quiz_id":1,"choiceSeq":2},{"quiz_id":2,"choiceSeq":1},{"quiz_id":3,"choiceSeq":3}]}}
{"token":"eyJ0eXAiOiJKV1QiLCJhbGciOiJIUzI1NiJ9.eyJ1aWQiOjQyODU2LCJleHBpcmVkIjoxNjAyMzM0OTIyfQ.56cM_Rv-OjCjB7N64Wu8t0K13oWU_MMhA_HbdmTIBc8","data":{"method":"PUT","data":[{"quiz_id":1,"choiceSeq":4},{"quiz_id":2,"choiceSeq":3},{"quiz_id":3,"choiceSeq":4}]}}
{"token":"eyJ0eXAiOiJKV1QiLCJhbGciOiJIUzI1NiJ9.eyJpZCI6NDQyMTYsInVpZCI6NDQyMTYsImV4cGlyZWQiOjE2MDIzMzUyMTd9.aaGgNBKizCnzeI86oBQG3TinPUSNoW8GY9zomaLBAws","data":{"method":"PUT","data":[{"quiz_id":1,"choiceSeq":1},{"quiz_id":2,"choiceSeq":3},{"quiz_id":3,"choiceSeq":4}]}}
{"token":"eyJ0eXAiOiJKV1QiLCJhbGciOiJIUzI1NiJ9.eyJpZCI6NDYyODAsInVpZCI6NDYyODAsImV4cGlyZWQiOjE2MDIzMzU1NDl9.CGiHenU2iW4TYa9tvw8chmPV41vm7LS55jCRW-RI7FI","data":{"method":"PUT","data":[{"quiz_id":1,"choiceSeq":4},{"quiz_id":2,"choiceSeq":3},{"quiz_id":3,"choiceSeq":4}]}}
{"token":"eyJ0eXAiOiJKV1QiLCJhbGciOiJIUzI1NiJ9.eyJ1aWQiOjQ2ODc0LCJleHBpcmVkIjoxNjAyMzM2NjE3fQ.zgxrWdsCRhowoSr6QStP9S0UBI-Ni0m7DzPufd_takM","data":{"method":"PUT","data":[{"quiz_id":1,"choiceSeq":4},{"quiz_id":2,"choiceSeq":4},{"quiz_id":3,"choiceSeq":3}]}}
{"token":"eyJ0eXAiOiJKV1QiLCJhbGciOiJIUzI1NiJ9.eyJ1aWQiOjIwNjk2LCJleHBpcmVkIjoxNjAyMzM2MTQxfQ.gDUhio_6ab2Ci4YpBpJd3SolZzlR-RL-JhJeTMcbDzM","data":{"method":"PUT","data":[{"quiz_id":1,"choiceSeq":4},{"quiz_id":2,"choiceSeq":4},{"quiz_id":3,"choiceSeq":4}]}}
{"token":"eyJ0eXAiOiJKV1QiLCJhbGciOiJIUzI1NiJ9.eyJpZCI6MjI0OSwidWlkIjoyMjQ5LCJleHBpcmVkIjoxNjAyMzM3MjM1fQ.RRIi_DnB_z9MMgeAX2ywDchE4OhJiJFp7lG6WkhGlGM","data":{"method":"PUT","data":[{"quiz_id":1,"choiceSeq":4},{"quiz_id":2,"choiceSeq":1},{"quiz_id":3,"choiceSeq":1}]}}
{"token":"eyJ0eXAiOiJKV1QiLCJhbGciOiJIUzI1NiJ9.eyJ1aWQiOjk1NCwiZXhwaXJlZCI6MTYwMjMzNzQ5Mn0.zUt7WNwdTTzBeBwGk0YYT8Q2EITgnNz2ueSzoaz39y0","data":{"method":"PUT","data":[{"quiz_id":1,"choiceSeq":4},{"quiz_id":2,"choiceSeq":3},{"quiz_id":3,"choiceSeq":4}]}}
{"token":"eyJ0eXAiOiJKV1QiLCJhbGciOiJIUzI1NiJ9.eyJpZCI6NDczODIsInVpZCI6NDczODIsImV4cGlyZWQiOjE2MDIzMzc3ODZ9.O3sNfLB_JIXzlobJ04_yawcBlta7v9wwToPiM-hgNEM","data":{"method":"PUT","data":[{"quiz_id":1,"choiceSeq":4},{"quiz_id":2,"choiceSeq":3},{"quiz_id":3,"choiceSeq":3}]}}
{"token":"eyJ0eXAiOiJKV1QiLCJhbGciOiJIUzI1NiJ9.eyJ1aWQiOjQzMjQ3LCJleHBpcmVkIjoxNjAyMzM4MjczfQ.AZcQ0Xnw8INCHmkMtiJSHAd_PIQvjSDFfaewhm9DNFY","data":{"method":"PUT","data":[{"quiz_id":1,"choiceSeq":4},{"quiz_id":2,"choiceSeq":3},{"quiz_id":3,"choiceSeq":4}]}}
{"token":"eyJ0eXAiOiJKV1QiLCJhbGciOiJIUzI1NiJ9.eyJ1aWQiOjE3MTEsImV4cGlyZWQiOjE2MDIzMzg5Mjl9.uu5Ot5T8McCOMqri7zkbkWCYn6quxBssAO8LwZ04dC4","data":{"method":"PUT","data":[{"quiz_id":1,"choiceSeq":4},{"quiz_id":2,"choiceSeq":3},{"quiz_id":3,"choiceSeq":4}]}}
{"token":"eyJ0eXAiOiJKV1QiLCJhbGciOiJIUzI1NiJ9.eyJpZCI6NDM3MDksInVpZCI6NDM3MDksImV4cGlyZWQiOjE2MDIzMzkyNTZ9.19jL87iEf7WUnteKBnbHo9xKVWNozebr7ROV8cgrFis","data":{"method":"PUT","data":[{"quiz_id":1,"choiceSeq":4},{"quiz_id":2,"choiceSeq":1},{"quiz_id":3,"choiceSeq":2}]}}
{"token":"eyJ0eXAiOiJKV1QiLCJhbGciOiJIUzI1NiJ9.eyJ1aWQiOjEyMzEyLCJleHBpcmVkIjoxNjAyMzM5NTUxfQ.6FLYSQkN7hGuw69fc2m0_hCXK8gOfp3HDYPtsQsmhw4","data":{"method":"PUT","data":[{"quiz_id":1,"choiceSeq":4},{"quiz_id":2,"choiceSeq":3},{"quiz_id":3,"choiceSeq":4}]}}
{"token":"eyJ0eXAiOiJKV1QiLCJhbGciOiJIUzI1NiJ9.eyJpZCI6MTg4OCwidWlkIjoxODg4LCJleHBpcmVkIjoxNjAyMzM5NjM2fQ.gfNB-CDREu3_aphlL3ksVdRKNCb5f74QyuDrOdW_ewk","data":{"method":"PUT","data":[{"quiz_id":1,"choiceSeq":4},{"quiz_id":2,"choiceSeq":3},{"quiz_id":3,"choiceSeq":4}]}}
{"token":"eyJ0eXAiOiJKV1QiLCJhbGciOiJIUzI1NiJ9.eyJ1aWQiOjM2NywiZXhwaXJlZCI6MTYwMjMzOTk5OX0.1TYATt8c5TEtVv_CX7ZwSNixXhcwRMpTTd5WJxAg7mg","data":{"method":"PUT","data":[{"quiz_id":1,"choiceSeq":4},{"quiz_id":2,"choiceSeq":3},{"quiz_id":3,"choiceSeq":4}]}}
{"token":"eyJ0eXAiOiJKV1QiLCJhbGciOiJIUzI1NiJ9.eyJ1aWQiOjk3NDAsImV4cGlyZWQiOjE2MDIzNDEyOTF9.xOj_yIJSRwMa9hAFUVZUmak_z07I7dqY0QW9f0UrjU8","data":{"method":"PUT","data":[{"quiz_id":1,"choiceSeq":4},{"quiz_id":2,"choiceSeq":2},{"quiz_id":3,"choiceSeq":2}]}}
{"token":"eyJ0eXAiOiJKV1QiLCJhbGciOiJIUzI1NiJ9.eyJ1aWQiOjIxNzcsImV4cGlyZWQiOjE2MDIzNDA5NTh9.mVfduB40Xq8AlbKKUj74QKeUQzER_iQeV0_zNIqyNtQ","data":{"method":"PUT","data":[{"quiz_id":1,"choiceSeq":4},{"quiz_id":2,"choiceSeq":3},{"quiz_id":3,"choiceSeq":4}]}}
{"token":"eyJ0eXAiOiJKV1QiLCJhbGciOiJIUzI1NiJ9.eyJ1aWQiOjQxNTcwLCJleHBpcmVkIjoxNjAyMzQxNTk2fQ.6acIcAyygMRMUjWThEv7jJOfaJbt7uQVrD0UiONlT8w","data":{"method":"PUT","data":[{"quiz_id":1,"choiceSeq":4},{"quiz_id":2,"choiceSeq":1},{"quiz_id":3,"choiceSeq":1}]}}
{"token":"eyJ0eXAiOiJKV1QiLCJhbGciOiJIUzI1NiJ9.eyJ1aWQiOjI0ODIsImV4cGlyZWQiOjE2MDIzNDE1ODd9.x65uK9ZDznJmxXMmU7SHVUddfaahNJFHtbSapVDXRSU","data":{"method":"PUT","data":[{"quiz_id":1,"choiceSeq":4},{"quiz_id":2,"choiceSeq":2},{"quiz_id":3,"choiceSeq":4}]}}
{"token":"eyJ0eXAiOiJKV1QiLCJhbGciOiJIUzI1NiJ9.eyJ1aWQiOjI0NTEsImV4cGlyZWQiOjE2MDIzNDE3OTB9.J1mo4lhkHnMKuJb8M2LuKCQxduJZUT8A-gt07paoqLo","data":{"method":"PUT","data":[{"quiz_id":1,"choiceSeq":4},{"quiz_id":2,"choiceSeq":2},{"quiz_id":3,"choiceSeq":3}]}}
{"token":"eyJ0eXAiOiJKV1QiLCJhbGciOiJIUzI1NiJ9.eyJ1aWQiOjQ2MDM2LCJleHBpcmVkIjoxNjAyMzQxOTc5fQ.4fD6doQ8ZmuYECmdzvaudy03_toq4e8f_6Zy1ZWBcWA","data":{"method":"PUT","data":[{"quiz_id":1,"choiceSeq":4},{"quiz_id":2,"choiceSeq":3},{"quiz_id":3,"choiceSeq":4}]}}
{"token":"eyJ0eXAiOiJKV1QiLCJhbGciOiJIUzI1NiJ9.eyJ1aWQiOjExOTcsImV4cGlyZWQiOjE2MDIzNDI3NTd9.n3i1SeEeOcAI-xxdYEVyBYnjgvHGwCyLjiP7yA9d_ZY","data":{"method":"PUT","data":[{"quiz_id":1,"choiceSeq":4},{"quiz_id":2,"choiceSeq":2},{"quiz_id":3,"choiceSeq":4}]}}
{"token":"eyJ0eXAiOiJKV1QiLCJhbGciOiJIUzI1NiJ9.eyJ1aWQiOjExMTcsImV4cGlyZWQiOjE2MDIzMjY5MTR9.BmyA01lLumqEGnJZCUcf_xX74hyl5W1ZX9ZfSheYW4s","data":{"method":"PUT","data":[{"quiz_id":1,"choiceSeq":4},{"quiz_id":2,"choiceSeq":3},{"quiz_id":3,"choiceSeq":4}]}}
{"token":"eyJ0eXAiOiJKV1QiLCJhbGciOiJIUzI1NiJ9.eyJ1aWQiOjQyMjc4LCJleHBpcmVkIjoxNjAyMzQyODcwfQ.ZS8Kzi3UEqhJOhNVh6fE_LTmVsBHcmFX06v47X-4QjQ","data":{"method":"PUT","data":[{"quiz_id":1,"choiceSeq":4},{"quiz_id":2,"choiceSeq":1},{"quiz_id":3,"choiceSeq":1}]}}
{"token":"eyJ0eXAiOiJKV1QiLCJhbGciOiJIUzI1NiJ9.eyJpZCI6NDYxMTksInVpZCI6NDYxMTksImV4cGlyZWQiOjE2MDIzMzg1NjJ9.efA-PInVnWxoxP9ZEw48bddoHp5tkHgjGbjv0ceFSDM","data":{"method":"PUT","data":[{"quiz_id":1,"choiceSeq":4},{"quiz_id":2,"choiceSeq":3},{"quiz_id":3,"choiceSeq":4}]}}
{"token":"eyJ0eXAiOiJKV1QiLCJhbGciOiJIUzI1NiJ9.eyJpZCI6NjAyMDYsInVpZCI6NjAyMDYsImV4cGlyZWQiOjE2MDIzNDQ3NTN9.lVZ4C3aKUxy4XPi_kU8qt3RrF3IcRrYFj5LOruXvXq0","data":{"method":"PUT","data":[{"quiz_id":1,"choiceSeq":4},{"quiz_id":2,"choiceSeq":3},{"quiz_id":3,"choiceSeq":4}]}}
{"token":"eyJ0eXAiOiJKV1QiLCJhbGciOiJIUzI1NiJ9.eyJpZCI6NDMzMzgsInVpZCI6NDMzMzgsImV4cGlyZWQiOjE2MDIzMjU5MTh9.dTpL4yF08YnlFd7oLLLHk4tTHZOmd5bmhXUBGQ6BHFU","data":{"method":"PUT","data":[{"quiz_id":1,"choiceSeq":2},{"quiz_id":2,"choiceSeq":1},{"quiz_id":3,"choiceSeq":2}]}}
{"token":"eyJ0eXAiOiJKV1QiLCJhbGciOiJIUzI1NiJ9.eyJpZCI6NDM2NjYsInVpZCI6NDM2NjYsImV4cGlyZWQiOjE2MDIzNDUwNzR9.TE76FBoIJdXaTTZvF7Lb4yNFzDmW3o0KX89qz8yy_pQ","data":{"method":"PUT","data":[{"quiz_id":1,"choiceSeq":4},{"quiz_id":2,"choiceSeq":3},{"quiz_id":3,"choiceSeq":4}]}}
{"token":"eyJ0eXAiOiJKV1QiLCJhbGciOiJIUzI1NiJ9.eyJpZCI6NTA4ODEsInVpZCI6NTA4ODEsImV4cGlyZWQiOjE2MDIzNDUwMjR9.ikbnjTtBzACjkk_amd6_Y0f4ucI4wC15jcSTmsJZlhk","data":{"method":"PUT","data":[{"quiz_id":1,"choiceSeq":4},{"quiz_id":2,"choiceSeq":3},{"quiz_id":3,"choiceSeq":4}]}}
{"token":"eyJ0eXAiOiJKV1QiLCJhbGciOiJIUzI1NiJ9.eyJ1aWQiOjEyNjU1LCJleHBpcmVkIjoxNjAyMzQ1OTcxfQ.YZc_HYhjtnXRU0nd_70nxrZ3prETtkYLk0bBOqd8l4Q","data":{"method":"PUT","data":[{"quiz_id":1,"choiceSeq":4},{"quiz_id":2,"choiceSeq":3},{"quiz_id":3,"choiceSeq":4}]}}
